%YAML 1.1
%TAG !u! tag:unity3d.com,2011:
--- !u!29 &1
OcclusionCullingSettings:
  m_ObjectHideFlags: 0
  serializedVersion: 2
  m_OcclusionBakeSettings:
    smallestOccluder: 5
    smallestHole: 0.25
    backfaceThreshold: 100
  m_SceneGUID: 00000000000000000000000000000000
  m_OcclusionCullingData: {fileID: 0}
--- !u!104 &2
RenderSettings:
  m_ObjectHideFlags: 0
  serializedVersion: 9
  m_Fog: 0
  m_FogColor: {r: 0.5, g: 0.5, b: 0.5, a: 1}
  m_FogMode: 3
  m_FogDensity: 0.01
  m_LinearFogStart: 0
  m_LinearFogEnd: 300
  m_AmbientSkyColor: {r: 0.212, g: 0.227, b: 0.259, a: 1}
  m_AmbientEquatorColor: {r: 0.114, g: 0.125, b: 0.133, a: 1}
  m_AmbientGroundColor: {r: 0.047, g: 0.043, b: 0.035, a: 1}
  m_AmbientIntensity: 1
  m_AmbientMode: 0
  m_SubtractiveShadowColor: {r: 0.42, g: 0.478, b: 0.627, a: 1}
  m_SkyboxMaterial: {fileID: 10304, guid: 0000000000000000f000000000000000, type: 0}
  m_HaloStrength: 0.5
  m_FlareStrength: 1
  m_FlareFadeSpeed: 3
  m_HaloTexture: {fileID: 0}
  m_SpotCookie: {fileID: 10001, guid: 0000000000000000e000000000000000, type: 0}
  m_DefaultReflectionMode: 0
  m_DefaultReflectionResolution: 128
  m_ReflectionBounces: 1
  m_ReflectionIntensity: 1
  m_CustomReflection: {fileID: 0}
  m_Sun: {fileID: 0}
  m_IndirectSpecularColor: {r: 0, g: 0, b: 0, a: 1}
  m_UseRadianceAmbientProbe: 0
--- !u!157 &3
LightmapSettings:
  m_ObjectHideFlags: 0
  serializedVersion: 11
  m_GIWorkflowMode: 1
  m_GISettings:
    serializedVersion: 2
    m_BounceScale: 1
    m_IndirectOutputScale: 1
    m_AlbedoBoost: 1
    m_EnvironmentLightingMode: 0
    m_EnableBakedLightmaps: 1
    m_EnableRealtimeLightmaps: 0
  m_LightmapEditorSettings:
    serializedVersion: 12
    m_Resolution: 2
    m_BakeResolution: 40
    m_AtlasSize: 1024
    m_AO: 0
    m_AOMaxDistance: 1
    m_CompAOExponent: 1
    m_CompAOExponentDirect: 0
    m_ExtractAmbientOcclusion: 0
    m_Padding: 2
    m_LightmapParameters: {fileID: 0}
    m_LightmapsBakeMode: 1
    m_TextureCompression: 1
    m_FinalGather: 0
    m_FinalGatherFiltering: 1
    m_FinalGatherRayCount: 256
    m_ReflectionCompression: 2
    m_MixedBakeMode: 2
    m_BakeBackend: 1
    m_PVRSampling: 1
    m_PVRDirectSampleCount: 32
    m_PVRSampleCount: 500
    m_PVRBounces: 2
    m_PVREnvironmentSampleCount: 500
    m_PVREnvironmentReferencePointCount: 2048
    m_PVRFilteringMode: 2
    m_PVRDenoiserTypeDirect: 0
    m_PVRDenoiserTypeIndirect: 0
    m_PVRDenoiserTypeAO: 0
    m_PVRFilterTypeDirect: 0
    m_PVRFilterTypeIndirect: 0
    m_PVRFilterTypeAO: 0
    m_PVREnvironmentMIS: 0
    m_PVRCulling: 1
    m_PVRFilteringGaussRadiusDirect: 1
    m_PVRFilteringGaussRadiusIndirect: 5
    m_PVRFilteringGaussRadiusAO: 2
    m_PVRFilteringAtrousPositionSigmaDirect: 0.5
    m_PVRFilteringAtrousPositionSigmaIndirect: 2
    m_PVRFilteringAtrousPositionSigmaAO: 1
    m_ExportTrainingData: 0
    m_TrainingDataDestination: TrainingData
    m_LightProbeSampleCountMultiplier: 4
  m_LightingDataAsset: {fileID: 0}
  m_UseShadowmask: 1
--- !u!196 &4
NavMeshSettings:
  serializedVersion: 2
  m_ObjectHideFlags: 0
  m_BuildSettings:
    serializedVersion: 2
    agentTypeID: 0
    agentRadius: 0.5
    agentHeight: 2
    agentSlope: 45
    agentClimb: 0.4
    ledgeDropHeight: 0
    maxJumpAcrossDistance: 0
    minRegionArea: 2
    manualCellSize: 0
    cellSize: 0.16666667
    manualTileSize: 0
    tileSize: 256
    accuratePlacement: 0
    debug:
      m_Flags: 0
  m_NavMeshData: {fileID: 0}
--- !u!1 &652393561
GameObject:
  m_ObjectHideFlags: 0
  m_CorrespondingSourceObject: {fileID: 0}
  m_PrefabInstance: {fileID: 0}
  m_PrefabAsset: {fileID: 0}
  serializedVersion: 6
  m_Component:
  - component: {fileID: 652393564}
  - component: {fileID: 652393563}
  - component: {fileID: 652393562}
  m_Layer: 0
  m_Name: EventSystem
  m_TagString: Untagged
  m_Icon: {fileID: 0}
  m_NavMeshLayer: 0
  m_StaticEditorFlags: 0
  m_IsActive: 1
--- !u!114 &652393562
MonoBehaviour:
  m_ObjectHideFlags: 0
  m_CorrespondingSourceObject: {fileID: 0}
  m_PrefabInstance: {fileID: 0}
  m_PrefabAsset: {fileID: 0}
  m_GameObject: {fileID: 652393561}
  m_Enabled: 1
  m_EditorHideFlags: 0
  m_Script: {fileID: 11500000, guid: 4f231c4fb786f3946a6b90b886c48677, type: 3}
  m_Name: 
  m_EditorClassIdentifier: 
  m_HorizontalAxis: Horizontal
  m_VerticalAxis: Vertical
  m_SubmitButton: Submit
  m_CancelButton: Cancel
  m_InputActionsPerSecond: 10
  m_RepeatDelay: 0.5
  m_ForceModuleActive: 0
--- !u!114 &652393563
MonoBehaviour:
  m_ObjectHideFlags: 0
  m_CorrespondingSourceObject: {fileID: 0}
  m_PrefabInstance: {fileID: 0}
  m_PrefabAsset: {fileID: 0}
  m_GameObject: {fileID: 652393561}
  m_Enabled: 1
  m_EditorHideFlags: 0
  m_Script: {fileID: 11500000, guid: 76c392e42b5098c458856cdf6ecaaaa1, type: 3}
  m_Name: 
  m_EditorClassIdentifier: 
  m_FirstSelected: {fileID: 0}
  m_sendNavigationEvents: 1
  m_DragThreshold: 10
--- !u!4 &652393564
Transform:
  m_ObjectHideFlags: 0
  m_CorrespondingSourceObject: {fileID: 0}
  m_PrefabInstance: {fileID: 0}
  m_PrefabAsset: {fileID: 0}
  m_GameObject: {fileID: 652393561}
  m_LocalRotation: {x: 0, y: 0, z: 0, w: 1}
  m_LocalPosition: {x: 0, y: 0, z: 0}
  m_LocalScale: {x: 1, y: 1, z: 1}
  m_Children: []
  m_Father: {fileID: 0}
  m_RootOrder: 2
  m_LocalEulerAnglesHint: {x: 0, y: 0, z: 0}
--- !u!1001 &667788504
PrefabInstance:
  m_ObjectHideFlags: 0
  serializedVersion: 2
  m_Modification:
    m_TransformParent: {fileID: 691788391}
    m_Modifications:
    - target: {fileID: 2729401001709935186, guid: 3f271e192dfc2c640b331327ae4fa2e2,
        type: 3}
      propertyPath: m_Name
      value: Background
      objectReference: {fileID: 0}
    - target: {fileID: 2729401001709935186, guid: 3f271e192dfc2c640b331327ae4fa2e2,
        type: 3}
      propertyPath: m_IsActive
      value: 1
      objectReference: {fileID: 0}
    - target: {fileID: 2729401001709935197, guid: 3f271e192dfc2c640b331327ae4fa2e2,
        type: 3}
      propertyPath: m_LocalPosition.x
      value: 0
      objectReference: {fileID: 0}
    - target: {fileID: 2729401001709935197, guid: 3f271e192dfc2c640b331327ae4fa2e2,
        type: 3}
      propertyPath: m_LocalPosition.y
      value: 0
      objectReference: {fileID: 0}
    - target: {fileID: 2729401001709935197, guid: 3f271e192dfc2c640b331327ae4fa2e2,
        type: 3}
      propertyPath: m_LocalPosition.z
      value: 0
      objectReference: {fileID: 0}
    - target: {fileID: 2729401001709935197, guid: 3f271e192dfc2c640b331327ae4fa2e2,
        type: 3}
      propertyPath: m_LocalRotation.x
      value: 0
      objectReference: {fileID: 0}
    - target: {fileID: 2729401001709935197, guid: 3f271e192dfc2c640b331327ae4fa2e2,
        type: 3}
      propertyPath: m_LocalRotation.y
      value: 0
      objectReference: {fileID: 0}
    - target: {fileID: 2729401001709935197, guid: 3f271e192dfc2c640b331327ae4fa2e2,
        type: 3}
      propertyPath: m_LocalRotation.z
      value: 0
      objectReference: {fileID: 0}
    - target: {fileID: 2729401001709935197, guid: 3f271e192dfc2c640b331327ae4fa2e2,
        type: 3}
      propertyPath: m_LocalRotation.w
      value: 1
      objectReference: {fileID: 0}
    - target: {fileID: 2729401001709935197, guid: 3f271e192dfc2c640b331327ae4fa2e2,
        type: 3}
      propertyPath: m_RootOrder
      value: 0
      objectReference: {fileID: 0}
    - target: {fileID: 2729401001709935197, guid: 3f271e192dfc2c640b331327ae4fa2e2,
        type: 3}
      propertyPath: m_LocalEulerAnglesHint.x
      value: 0
      objectReference: {fileID: 0}
    - target: {fileID: 2729401001709935197, guid: 3f271e192dfc2c640b331327ae4fa2e2,
        type: 3}
      propertyPath: m_LocalEulerAnglesHint.y
      value: 0
      objectReference: {fileID: 0}
    - target: {fileID: 2729401001709935197, guid: 3f271e192dfc2c640b331327ae4fa2e2,
        type: 3}
      propertyPath: m_LocalEulerAnglesHint.z
      value: 0
      objectReference: {fileID: 0}
    - target: {fileID: 2729401001709935197, guid: 3f271e192dfc2c640b331327ae4fa2e2,
        type: 3}
      propertyPath: m_AnchoredPosition.x
      value: 0
      objectReference: {fileID: 0}
    - target: {fileID: 2729401001709935197, guid: 3f271e192dfc2c640b331327ae4fa2e2,
        type: 3}
      propertyPath: m_AnchoredPosition.y
      value: 0
      objectReference: {fileID: 0}
    - target: {fileID: 2729401001709935197, guid: 3f271e192dfc2c640b331327ae4fa2e2,
        type: 3}
      propertyPath: m_SizeDelta.x
      value: 0
      objectReference: {fileID: 0}
    - target: {fileID: 2729401001709935197, guid: 3f271e192dfc2c640b331327ae4fa2e2,
        type: 3}
      propertyPath: m_SizeDelta.y
      value: 0
      objectReference: {fileID: 0}
    - target: {fileID: 2729401001709935197, guid: 3f271e192dfc2c640b331327ae4fa2e2,
        type: 3}
      propertyPath: m_AnchorMin.x
      value: 0
      objectReference: {fileID: 0}
    - target: {fileID: 2729401001709935197, guid: 3f271e192dfc2c640b331327ae4fa2e2,
        type: 3}
      propertyPath: m_AnchorMin.y
      value: 0
      objectReference: {fileID: 0}
    - target: {fileID: 2729401001709935197, guid: 3f271e192dfc2c640b331327ae4fa2e2,
        type: 3}
      propertyPath: m_AnchorMax.x
      value: 1
      objectReference: {fileID: 0}
    - target: {fileID: 2729401001709935197, guid: 3f271e192dfc2c640b331327ae4fa2e2,
        type: 3}
      propertyPath: m_AnchorMax.y
      value: 1
      objectReference: {fileID: 0}
    - target: {fileID: 2729401001709935197, guid: 3f271e192dfc2c640b331327ae4fa2e2,
        type: 3}
      propertyPath: m_Pivot.x
      value: 0.5
      objectReference: {fileID: 0}
    - target: {fileID: 2729401001709935197, guid: 3f271e192dfc2c640b331327ae4fa2e2,
        type: 3}
      propertyPath: m_Pivot.y
      value: 0.5
      objectReference: {fileID: 0}
    m_RemovedComponents: []
  m_SourcePrefab: {fileID: 100100000, guid: 3f271e192dfc2c640b331327ae4fa2e2, type: 3}
--- !u!224 &667788505 stripped
RectTransform:
  m_CorrespondingSourceObject: {fileID: 2729401001709935197, guid: 3f271e192dfc2c640b331327ae4fa2e2,
    type: 3}
  m_PrefabInstance: {fileID: 667788504}
  m_PrefabAsset: {fileID: 0}
--- !u!1 &691788387
GameObject:
  m_ObjectHideFlags: 0
  m_CorrespondingSourceObject: {fileID: 0}
  m_PrefabInstance: {fileID: 0}
  m_PrefabAsset: {fileID: 0}
  serializedVersion: 6
  m_Component:
  - component: {fileID: 691788391}
  - component: {fileID: 691788390}
  - component: {fileID: 691788389}
  - component: {fileID: 691788388}
  m_Layer: 5
  m_Name: Canvas
  m_TagString: Untagged
  m_Icon: {fileID: 0}
  m_NavMeshLayer: 0
  m_StaticEditorFlags: 0
  m_IsActive: 1
--- !u!114 &691788388
MonoBehaviour:
  m_ObjectHideFlags: 0
  m_CorrespondingSourceObject: {fileID: 0}
  m_PrefabInstance: {fileID: 0}
  m_PrefabAsset: {fileID: 0}
  m_GameObject: {fileID: 691788387}
  m_Enabled: 1
  m_EditorHideFlags: 0
  m_Script: {fileID: 11500000, guid: dc42784cf147c0c48a680349fa168899, type: 3}
  m_Name: 
  m_EditorClassIdentifier: 
  m_IgnoreReversedGraphics: 1
  m_BlockingObjects: 0
  m_BlockingMask:
    serializedVersion: 2
    m_Bits: 4294967295
--- !u!114 &691788389
MonoBehaviour:
  m_ObjectHideFlags: 0
  m_CorrespondingSourceObject: {fileID: 0}
  m_PrefabInstance: {fileID: 0}
  m_PrefabAsset: {fileID: 0}
  m_GameObject: {fileID: 691788387}
  m_Enabled: 1
  m_EditorHideFlags: 0
  m_Script: {fileID: 11500000, guid: 0cd44c1031e13a943bb63640046fad76, type: 3}
  m_Name: 
  m_EditorClassIdentifier: 
  m_UiScaleMode: 1
  m_ReferencePixelsPerUnit: 100
  m_ScaleFactor: 1
  m_ReferenceResolution: {x: 1024, y: 1280}
  m_ScreenMatchMode: 0
  m_MatchWidthOrHeight: 0
  m_PhysicalUnit: 3
  m_FallbackScreenDPI: 96
  m_DefaultSpriteDPI: 96
  m_DynamicPixelsPerUnit: 1
--- !u!223 &691788390
Canvas:
  m_ObjectHideFlags: 0
  m_CorrespondingSourceObject: {fileID: 0}
  m_PrefabInstance: {fileID: 0}
  m_PrefabAsset: {fileID: 0}
  m_GameObject: {fileID: 691788387}
  m_Enabled: 1
  serializedVersion: 3
  m_RenderMode: 0
  m_Camera: {fileID: 0}
  m_PlaneDistance: 100
  m_PixelPerfect: 0
  m_ReceivesEvents: 1
  m_OverrideSorting: 0
  m_OverridePixelPerfect: 0
  m_SortingBucketNormalizedSize: 0
  m_AdditionalShaderChannelsFlag: 0
  m_SortingLayerID: 0
  m_SortingOrder: 0
  m_TargetDisplay: 0
--- !u!224 &691788391
RectTransform:
  m_ObjectHideFlags: 0
  m_CorrespondingSourceObject: {fileID: 0}
  m_PrefabInstance: {fileID: 0}
  m_PrefabAsset: {fileID: 0}
  m_GameObject: {fileID: 691788387}
  m_LocalRotation: {x: 0, y: 0, z: 0, w: 1}
  m_LocalPosition: {x: 0, y: 0, z: 0}
  m_LocalScale: {x: 0, y: 0, z: 0}
  m_Children:
  - {fileID: 667788505}
  - {fileID: 1987765174}
  - {fileID: 1902254680}
  - {fileID: 977758530}
  - {fileID: 727078313}
  - {fileID: 1345194505}
  - {fileID: 974591682224592377}
  m_Father: {fileID: 0}
  m_RootOrder: 1
  m_LocalEulerAnglesHint: {x: 0, y: 0, z: 0}
  m_AnchorMin: {x: 0, y: 0}
  m_AnchorMax: {x: 0, y: 0}
  m_AnchoredPosition: {x: 0, y: 0}
  m_SizeDelta: {x: 0, y: 0}
  m_Pivot: {x: 0, y: 0}
--- !u!1001 &727078312
PrefabInstance:
  m_ObjectHideFlags: 0
  serializedVersion: 2
  m_Modification:
    m_TransformParent: {fileID: 691788391}
    m_Modifications:
    - target: {fileID: 5810614227211109306, guid: b6178e5295d4e0b4e94ee1ea4670e3c8,
        type: 3}
      propertyPath: m_Name
      value: Letter and Line
      objectReference: {fileID: 0}
    - target: {fileID: 5810614227211109307, guid: b6178e5295d4e0b4e94ee1ea4670e3c8,
        type: 3}
      propertyPath: m_LocalPosition.x
      value: 0
      objectReference: {fileID: 0}
    - target: {fileID: 5810614227211109307, guid: b6178e5295d4e0b4e94ee1ea4670e3c8,
        type: 3}
      propertyPath: m_LocalPosition.y
      value: 0
      objectReference: {fileID: 0}
    - target: {fileID: 5810614227211109307, guid: b6178e5295d4e0b4e94ee1ea4670e3c8,
        type: 3}
      propertyPath: m_LocalPosition.z
      value: 0
      objectReference: {fileID: 0}
    - target: {fileID: 5810614227211109307, guid: b6178e5295d4e0b4e94ee1ea4670e3c8,
        type: 3}
      propertyPath: m_LocalRotation.x
      value: 0
      objectReference: {fileID: 0}
    - target: {fileID: 5810614227211109307, guid: b6178e5295d4e0b4e94ee1ea4670e3c8,
        type: 3}
      propertyPath: m_LocalRotation.y
      value: 0
      objectReference: {fileID: 0}
    - target: {fileID: 5810614227211109307, guid: b6178e5295d4e0b4e94ee1ea4670e3c8,
        type: 3}
      propertyPath: m_LocalRotation.z
      value: 0
      objectReference: {fileID: 0}
    - target: {fileID: 5810614227211109307, guid: b6178e5295d4e0b4e94ee1ea4670e3c8,
        type: 3}
      propertyPath: m_LocalRotation.w
      value: 1
      objectReference: {fileID: 0}
    - target: {fileID: 5810614227211109307, guid: b6178e5295d4e0b4e94ee1ea4670e3c8,
        type: 3}
      propertyPath: m_RootOrder
      value: 4
      objectReference: {fileID: 0}
    - target: {fileID: 5810614227211109307, guid: b6178e5295d4e0b4e94ee1ea4670e3c8,
        type: 3}
      propertyPath: m_LocalEulerAnglesHint.x
      value: 0
      objectReference: {fileID: 0}
    - target: {fileID: 5810614227211109307, guid: b6178e5295d4e0b4e94ee1ea4670e3c8,
        type: 3}
      propertyPath: m_LocalEulerAnglesHint.y
      value: 0
      objectReference: {fileID: 0}
    - target: {fileID: 5810614227211109307, guid: b6178e5295d4e0b4e94ee1ea4670e3c8,
        type: 3}
      propertyPath: m_LocalEulerAnglesHint.z
      value: 0
      objectReference: {fileID: 0}
    - target: {fileID: 5810614227211109307, guid: b6178e5295d4e0b4e94ee1ea4670e3c8,
        type: 3}
      propertyPath: m_AnchoredPosition.x
      value: 0
      objectReference: {fileID: 0}
    - target: {fileID: 5810614227211109307, guid: b6178e5295d4e0b4e94ee1ea4670e3c8,
        type: 3}
      propertyPath: m_AnchoredPosition.y
      value: 0
      objectReference: {fileID: 0}
    - target: {fileID: 5810614227211109307, guid: b6178e5295d4e0b4e94ee1ea4670e3c8,
        type: 3}
      propertyPath: m_SizeDelta.x
      value: 0
      objectReference: {fileID: 0}
    - target: {fileID: 5810614227211109307, guid: b6178e5295d4e0b4e94ee1ea4670e3c8,
        type: 3}
      propertyPath: m_SizeDelta.y
      value: 0
      objectReference: {fileID: 0}
    - target: {fileID: 5810614227211109307, guid: b6178e5295d4e0b4e94ee1ea4670e3c8,
        type: 3}
      propertyPath: m_AnchorMin.x
      value: 0
      objectReference: {fileID: 0}
    - target: {fileID: 5810614227211109307, guid: b6178e5295d4e0b4e94ee1ea4670e3c8,
        type: 3}
      propertyPath: m_AnchorMin.y
      value: 0
      objectReference: {fileID: 0}
    - target: {fileID: 5810614227211109307, guid: b6178e5295d4e0b4e94ee1ea4670e3c8,
        type: 3}
      propertyPath: m_AnchorMax.x
      value: 1
      objectReference: {fileID: 0}
    - target: {fileID: 5810614227211109307, guid: b6178e5295d4e0b4e94ee1ea4670e3c8,
        type: 3}
      propertyPath: m_AnchorMax.y
      value: 1
      objectReference: {fileID: 0}
    - target: {fileID: 5810614227211109307, guid: b6178e5295d4e0b4e94ee1ea4670e3c8,
        type: 3}
      propertyPath: m_Pivot.x
      value: 0.5
      objectReference: {fileID: 0}
    - target: {fileID: 5810614227211109307, guid: b6178e5295d4e0b4e94ee1ea4670e3c8,
        type: 3}
      propertyPath: m_Pivot.y
      value: 0.5
      objectReference: {fileID: 0}
    - target: {fileID: 5810614227999040208, guid: b6178e5295d4e0b4e94ee1ea4670e3c8,
        type: 3}
      propertyPath: m_AnchoredPosition.x
      value: -436.8
      objectReference: {fileID: 0}
    - target: {fileID: 5810614227999040208, guid: b6178e5295d4e0b4e94ee1ea4670e3c8,
        type: 3}
      propertyPath: m_AnchoredPosition.y
      value: -143.57997
      objectReference: {fileID: 0}
    - target: {fileID: 5810614227999040208, guid: b6178e5295d4e0b4e94ee1ea4670e3c8,
        type: 3}
      propertyPath: m_SizeDelta.y
      value: 457.3
      objectReference: {fileID: 0}
    - target: {fileID: 5810614227999040208, guid: b6178e5295d4e0b4e94ee1ea4670e3c8,
        type: 3}
      propertyPath: m_SizeDelta.x
      value: -1018.9
      objectReference: {fileID: 0}
    - target: {fileID: 5810614229003895465, guid: b6178e5295d4e0b4e94ee1ea4670e3c8,
        type: 3}
      propertyPath: m_AnchoredPosition.x
      value: -172.20001
      objectReference: {fileID: 0}
    - target: {fileID: 5810614229003895465, guid: b6178e5295d4e0b4e94ee1ea4670e3c8,
        type: 3}
      propertyPath: m_AnchoredPosition.y
      value: 421.82
      objectReference: {fileID: 0}
    - target: {fileID: 5810614229003895465, guid: b6178e5295d4e0b4e94ee1ea4670e3c8,
        type: 3}
      propertyPath: m_SizeDelta.x
      value: -411.4
      objectReference: {fileID: 0}
    - target: {fileID: 5810614229003895465, guid: b6178e5295d4e0b4e94ee1ea4670e3c8,
        type: 3}
      propertyPath: m_SizeDelta.y
      value: 478.3
      objectReference: {fileID: 0}
    - target: {fileID: 5810614229003895470, guid: b6178e5295d4e0b4e94ee1ea4670e3c8,
        type: 3}
      propertyPath: m_Sprite
      value: 
      objectReference: {fileID: 21300000, guid: 9b8b04cece472b2449e80b92d78023c2,
        type: 3}
    m_RemovedComponents: []
  m_SourcePrefab: {fileID: 100100000, guid: b6178e5295d4e0b4e94ee1ea4670e3c8, type: 3}
--- !u!224 &727078313 stripped
RectTransform:
  m_CorrespondingSourceObject: {fileID: 5810614227211109307, guid: b6178e5295d4e0b4e94ee1ea4670e3c8,
    type: 3}
  m_PrefabInstance: {fileID: 727078312}
  m_PrefabAsset: {fileID: 0}
--- !u!1 &963194225
GameObject:
  m_ObjectHideFlags: 0
  m_CorrespondingSourceObject: {fileID: 0}
  m_PrefabInstance: {fileID: 0}
  m_PrefabAsset: {fileID: 0}
  serializedVersion: 6
  m_Component:
  - component: {fileID: 963194228}
  - component: {fileID: 963194227}
  - component: {fileID: 963194226}
  - component: {fileID: 963194231}
  m_Layer: 0
  m_Name: Main Camera
  m_TagString: MainCamera
  m_Icon: {fileID: 0}
  m_NavMeshLayer: 0
  m_StaticEditorFlags: 0
  m_IsActive: 1
--- !u!81 &963194226
AudioListener:
  m_ObjectHideFlags: 0
  m_CorrespondingSourceObject: {fileID: 0}
  m_PrefabInstance: {fileID: 0}
  m_PrefabAsset: {fileID: 0}
  m_GameObject: {fileID: 963194225}
  m_Enabled: 1
--- !u!20 &963194227
Camera:
  m_ObjectHideFlags: 0
  m_CorrespondingSourceObject: {fileID: 0}
  m_PrefabInstance: {fileID: 0}
  m_PrefabAsset: {fileID: 0}
  m_GameObject: {fileID: 963194225}
  m_Enabled: 1
  serializedVersion: 2
  m_ClearFlags: 2
  m_BackGroundColor: {r: 0, g: 0, b: 0, a: 0}
  m_projectionMatrixMode: 1
  m_GateFitMode: 2
  m_FOVAxisMode: 0
  m_SensorSize: {x: 36, y: 24}
  m_LensShift: {x: 0, y: 0}
  m_FocalLength: 50
  m_NormalizedViewPortRect:
    serializedVersion: 2
    x: 0
    y: 0
    width: 1
    height: 1
  near clip plane: 0.3
  far clip plane: 1000
  field of view: 60
  orthographic: 0
  orthographic size: 5
  m_Depth: -1
  m_CullingMask:
    serializedVersion: 2
    m_Bits: 4294967295
  m_RenderingPath: -1
  m_TargetTexture: {fileID: 0}
  m_TargetDisplay: 0
  m_TargetEye: 3
  m_HDR: 1
  m_AllowMSAA: 1
  m_AllowDynamicResolution: 0
  m_ForceIntoRT: 0
  m_OcclusionCulling: 1
  m_StereoConvergence: 10
  m_StereoSeparation: 0.022
--- !u!4 &963194228
Transform:
  m_ObjectHideFlags: 0
  m_CorrespondingSourceObject: {fileID: 0}
  m_PrefabInstance: {fileID: 0}
  m_PrefabAsset: {fileID: 0}
  m_GameObject: {fileID: 963194225}
  m_LocalRotation: {x: 0, y: 0, z: 0, w: 1}
  m_LocalPosition: {x: 0, y: 1, z: -10}
  m_LocalScale: {x: 1, y: 1, z: 1}
  m_Children: []
  m_Father: {fileID: 0}
  m_RootOrder: 0
  m_LocalEulerAnglesHint: {x: 0, y: 0, z: 0}
--- !u!114 &963194231
MonoBehaviour:
  m_ObjectHideFlags: 0
  m_CorrespondingSourceObject: {fileID: 0}
  m_PrefabInstance: {fileID: 0}
  m_PrefabAsset: {fileID: 0}
  m_GameObject: {fileID: 963194225}
  m_Enabled: 1
  m_EditorHideFlags: 0
  m_Script: {fileID: 11500000, guid: 8e98d60988890234598464851b881540, type: 3}
  m_Name: 
  m_EditorClassIdentifier: 
  prevScene: 
  nextScene: Words
  helpScene: history.2.gramota
--- !u!1 &977758529
GameObject:
  m_ObjectHideFlags: 0
  m_CorrespondingSourceObject: {fileID: 0}
  m_PrefabInstance: {fileID: 0}
  m_PrefabAsset: {fileID: 0}
  serializedVersion: 6
  m_Component:
  - component: {fileID: 977758530}
  - component: {fileID: 977758532}
  - component: {fileID: 977758531}
  - component: {fileID: 977758533}
  m_Layer: 5
  m_Name: Gramota
  m_TagString: Untagged
  m_Icon: {fileID: 0}
  m_NavMeshLayer: 0
  m_StaticEditorFlags: 0
  m_IsActive: 1
--- !u!224 &977758530
RectTransform:
  m_ObjectHideFlags: 0
  m_CorrespondingSourceObject: {fileID: 0}
  m_PrefabInstance: {fileID: 0}
  m_PrefabAsset: {fileID: 0}
  m_GameObject: {fileID: 977758529}
  m_LocalRotation: {x: 0, y: 0, z: 0, w: 1}
  m_LocalPosition: {x: 0, y: 0, z: 0}
  m_LocalScale: {x: 1, y: 1, z: 1}
  m_Children: []
  m_Father: {fileID: 691788391}
  m_RootOrder: 3
  m_LocalEulerAnglesHint: {x: 0, y: 0, z: 0}
  m_AnchorMin: {x: 0.5, y: 0.5}
  m_AnchorMax: {x: 0.5, y: 0.5}
  m_AnchoredPosition: {x: 318.4, y: -44.07997}
  m_SizeDelta: {x: 336.1, y: 465.5}
  m_Pivot: {x: 0.5, y: 0.5}
--- !u!114 &977758531
MonoBehaviour:
  m_ObjectHideFlags: 0
  m_CorrespondingSourceObject: {fileID: 0}
  m_PrefabInstance: {fileID: 0}
  m_PrefabAsset: {fileID: 0}
  m_GameObject: {fileID: 977758529}
  m_Enabled: 1
  m_EditorHideFlags: 0
  m_Script: {fileID: 11500000, guid: fe87c0e1cc204ed48ad3b37840f39efc, type: 3}
  m_Name: 
  m_EditorClassIdentifier: 
  m_Material: {fileID: 0}
  m_Color: {r: 1, g: 1, b: 1, a: 1}
  m_RaycastTarget: 1
  m_OnCullStateChanged:
    m_PersistentCalls:
      m_Calls: []
  m_Sprite: {fileID: 21300000, guid: 6d4fb315cc4f1724ba7da0d85e8fbfc8, type: 3}
  m_Type: 0
  m_PreserveAspect: 0
  m_FillCenter: 1
  m_FillMethod: 4
  m_FillAmount: 1
  m_FillClockwise: 1
  m_FillOrigin: 0
  m_UseSpriteMesh: 0
  m_PixelsPerUnitMultiplier: 1
--- !u!222 &977758532
CanvasRenderer:
  m_ObjectHideFlags: 0
  m_CorrespondingSourceObject: {fileID: 0}
  m_PrefabInstance: {fileID: 0}
  m_PrefabAsset: {fileID: 0}
  m_GameObject: {fileID: 977758529}
  m_CullTransparentMesh: 0
--- !u!114 &977758533
MonoBehaviour:
  m_ObjectHideFlags: 0
  m_CorrespondingSourceObject: {fileID: 0}
  m_PrefabInstance: {fileID: 0}
  m_PrefabAsset: {fileID: 0}
  m_GameObject: {fileID: 977758529}
  m_Enabled: 1
  m_EditorHideFlags: 0
  m_Script: {fileID: 11500000, guid: 4e29b1a8efbd4b44bb3f3716e73f07ff, type: 3}
  m_Name: 
  m_EditorClassIdentifier: 
  m_Navigation:
    m_Mode: 3
    m_SelectOnUp: {fileID: 0}
    m_SelectOnDown: {fileID: 0}
    m_SelectOnLeft: {fileID: 0}
    m_SelectOnRight: {fileID: 0}
  m_Transition: 1
  m_Colors:
    m_NormalColor: {r: 1, g: 1, b: 1, a: 1}
    m_HighlightedColor: {r: 0.9607843, g: 0.9607843, b: 0.9607843, a: 1}
    m_PressedColor: {r: 0.78431374, g: 0.78431374, b: 0.78431374, a: 1}
    m_SelectedColor: {r: 0.9607843, g: 0.9607843, b: 0.9607843, a: 1}
    m_DisabledColor: {r: 0.78431374, g: 0.78431374, b: 0.78431374, a: 0.5019608}
    m_ColorMultiplier: 1
    m_FadeDuration: 0.1
  m_SpriteState:
    m_HighlightedSprite: {fileID: 0}
    m_PressedSprite: {fileID: 0}
    m_SelectedSprite: {fileID: 0}
    m_DisabledSprite: {fileID: 0}
  m_AnimationTriggers:
    m_NormalTrigger: Normal
    m_HighlightedTrigger: Highlighted
    m_PressedTrigger: Pressed
    m_SelectedTrigger: Selected
    m_DisabledTrigger: Disabled
  m_Interactable: 1
  m_TargetGraphic: {fileID: 977758531}
  m_OnClick:
    m_PersistentCalls:
      m_Calls:
      - m_Target: {fileID: 963194231}
        m_MethodName: OpenHelpScene
        m_Mode: 1
        m_Arguments:
          m_ObjectArgument: {fileID: 0}
          m_ObjectArgumentAssemblyTypeName: UnityEngine.Object, UnityEngine
          m_IntArgument: 0
          m_FloatArgument: 0
          m_StringArgument: 
          m_BoolArgument: 0
        m_CallState: 2
--- !u!1001 &1345194504
PrefabInstance:
  m_ObjectHideFlags: 0
  serializedVersion: 2
  m_Modification:
    m_TransformParent: {fileID: 691788391}
    m_Modifications:
    - target: {fileID: 5638431528086504416, guid: 845c78f7ae9170045a078c680559c3bd,
        type: 3}
      propertyPath: m_OnClick.m_PersistentCalls.m_Calls.Array.data[0].m_Target
      value: 
      objectReference: {fileID: 963194231}
    - target: {fileID: 5638431528086504416, guid: 845c78f7ae9170045a078c680559c3bd,
        type: 3}
      propertyPath: m_OnClick.m_PersistentCalls.m_Calls.Array.data[0].m_MethodName
      value: OpenNextScene
      objectReference: {fileID: 0}
    - target: {fileID: 5638431528086504430, guid: 845c78f7ae9170045a078c680559c3bd,
        type: 3}
      propertyPath: m_Name
      value: NextButton
      objectReference: {fileID: 0}
    - target: {fileID: 5638431528086504431, guid: 845c78f7ae9170045a078c680559c3bd,
        type: 3}
      propertyPath: m_LocalPosition.x
      value: 0
      objectReference: {fileID: 0}
    - target: {fileID: 5638431528086504431, guid: 845c78f7ae9170045a078c680559c3bd,
        type: 3}
      propertyPath: m_LocalPosition.y
      value: 0
      objectReference: {fileID: 0}
    - target: {fileID: 5638431528086504431, guid: 845c78f7ae9170045a078c680559c3bd,
        type: 3}
      propertyPath: m_LocalPosition.z
      value: 0
      objectReference: {fileID: 0}
    - target: {fileID: 5638431528086504431, guid: 845c78f7ae9170045a078c680559c3bd,
        type: 3}
      propertyPath: m_LocalRotation.x
      value: 0
      objectReference: {fileID: 0}
    - target: {fileID: 5638431528086504431, guid: 845c78f7ae9170045a078c680559c3bd,
        type: 3}
      propertyPath: m_LocalRotation.y
      value: 0
      objectReference: {fileID: 0}
    - target: {fileID: 5638431528086504431, guid: 845c78f7ae9170045a078c680559c3bd,
        type: 3}
      propertyPath: m_LocalRotation.z
      value: 0
      objectReference: {fileID: 0}
    - target: {fileID: 5638431528086504431, guid: 845c78f7ae9170045a078c680559c3bd,
        type: 3}
      propertyPath: m_LocalRotation.w
      value: 1
      objectReference: {fileID: 0}
    - target: {fileID: 5638431528086504431, guid: 845c78f7ae9170045a078c680559c3bd,
        type: 3}
      propertyPath: m_RootOrder
      value: 5
      objectReference: {fileID: 0}
    - target: {fileID: 5638431528086504431, guid: 845c78f7ae9170045a078c680559c3bd,
        type: 3}
      propertyPath: m_LocalEulerAnglesHint.x
      value: 0
      objectReference: {fileID: 0}
    - target: {fileID: 5638431528086504431, guid: 845c78f7ae9170045a078c680559c3bd,
        type: 3}
      propertyPath: m_LocalEulerAnglesHint.y
      value: 0
      objectReference: {fileID: 0}
    - target: {fileID: 5638431528086504431, guid: 845c78f7ae9170045a078c680559c3bd,
        type: 3}
      propertyPath: m_LocalEulerAnglesHint.z
      value: 0
      objectReference: {fileID: 0}
    - target: {fileID: 5638431528086504431, guid: 845c78f7ae9170045a078c680559c3bd,
        type: 3}
      propertyPath: m_AnchoredPosition.x
      value: 315.98
      objectReference: {fileID: 0}
    - target: {fileID: 5638431528086504431, guid: 845c78f7ae9170045a078c680559c3bd,
        type: 3}
      propertyPath: m_AnchoredPosition.y
      value: 78.9
      objectReference: {fileID: 0}
    - target: {fileID: 5638431528086504431, guid: 845c78f7ae9170045a078c680559c3bd,
        type: 3}
      propertyPath: m_SizeDelta.x
      value: -682.87
      objectReference: {fileID: 0}
    - target: {fileID: 5638431528086504431, guid: 845c78f7ae9170045a078c680559c3bd,
        type: 3}
      propertyPath: m_SizeDelta.y
      value: 101
      objectReference: {fileID: 0}
    - target: {fileID: 5638431528086504431, guid: 845c78f7ae9170045a078c680559c3bd,
        type: 3}
      propertyPath: m_AnchorMin.x
      value: 0
      objectReference: {fileID: 0}
    - target: {fileID: 5638431528086504431, guid: 845c78f7ae9170045a078c680559c3bd,
        type: 3}
      propertyPath: m_AnchorMin.y
      value: 0
      objectReference: {fileID: 0}
    - target: {fileID: 5638431528086504431, guid: 845c78f7ae9170045a078c680559c3bd,
        type: 3}
      propertyPath: m_AnchorMax.x
      value: 1
      objectReference: {fileID: 0}
    - target: {fileID: 5638431528086504431, guid: 845c78f7ae9170045a078c680559c3bd,
        type: 3}
      propertyPath: m_AnchorMax.y
      value: 0
      objectReference: {fileID: 0}
    - target: {fileID: 5638431528086504431, guid: 845c78f7ae9170045a078c680559c3bd,
        type: 3}
      propertyPath: m_Pivot.x
      value: 0.5
      objectReference: {fileID: 0}
    - target: {fileID: 5638431528086504431, guid: 845c78f7ae9170045a078c680559c3bd,
        type: 3}
      propertyPath: m_Pivot.y
      value: 0.5
      objectReference: {fileID: 0}
    m_RemovedComponents: []
  m_SourcePrefab: {fileID: 100100000, guid: 845c78f7ae9170045a078c680559c3bd, type: 3}
--- !u!224 &1345194505 stripped
RectTransform:
  m_CorrespondingSourceObject: {fileID: 5638431528086504431, guid: 845c78f7ae9170045a078c680559c3bd,
    type: 3}
  m_PrefabInstance: {fileID: 1345194504}
  m_PrefabAsset: {fileID: 0}
--- !u!1001 &1902254679
PrefabInstance:
  m_ObjectHideFlags: 0
  serializedVersion: 2
  m_Modification:
    m_TransformParent: {fileID: 691788391}
    m_Modifications:
    - target: {fileID: 974591683568404956, guid: 842bb191e1efa2c469e30feb30a6f46e,
        type: 3}
      propertyPath: m_LocalPosition.x
      value: 0
      objectReference: {fileID: 0}
    - target: {fileID: 974591683568404956, guid: 842bb191e1efa2c469e30feb30a6f46e,
        type: 3}
      propertyPath: m_LocalPosition.y
      value: 0
      objectReference: {fileID: 0}
    - target: {fileID: 974591683568404956, guid: 842bb191e1efa2c469e30feb30a6f46e,
        type: 3}
      propertyPath: m_LocalPosition.z
      value: 0
      objectReference: {fileID: 0}
    - target: {fileID: 974591683568404956, guid: 842bb191e1efa2c469e30feb30a6f46e,
        type: 3}
      propertyPath: m_LocalRotation.x
      value: 0
      objectReference: {fileID: 0}
    - target: {fileID: 974591683568404956, guid: 842bb191e1efa2c469e30feb30a6f46e,
        type: 3}
      propertyPath: m_LocalRotation.y
      value: 0
      objectReference: {fileID: 0}
    - target: {fileID: 974591683568404956, guid: 842bb191e1efa2c469e30feb30a6f46e,
        type: 3}
      propertyPath: m_LocalRotation.z
      value: 0
      objectReference: {fileID: 0}
    - target: {fileID: 974591683568404956, guid: 842bb191e1efa2c469e30feb30a6f46e,
        type: 3}
      propertyPath: m_LocalRotation.w
      value: 1
      objectReference: {fileID: 0}
    - target: {fileID: 974591683568404956, guid: 842bb191e1efa2c469e30feb30a6f46e,
        type: 3}
      propertyPath: m_RootOrder
      value: 2
      objectReference: {fileID: 0}
    - target: {fileID: 974591683568404956, guid: 842bb191e1efa2c469e30feb30a6f46e,
        type: 3}
      propertyPath: m_LocalEulerAnglesHint.x
      value: 0
      objectReference: {fileID: 0}
    - target: {fileID: 974591683568404956, guid: 842bb191e1efa2c469e30feb30a6f46e,
        type: 3}
      propertyPath: m_LocalEulerAnglesHint.y
      value: 0
      objectReference: {fileID: 0}
    - target: {fileID: 974591683568404956, guid: 842bb191e1efa2c469e30feb30a6f46e,
        type: 3}
      propertyPath: m_LocalEulerAnglesHint.z
      value: 0
      objectReference: {fileID: 0}
    - target: {fileID: 974591683568404956, guid: 842bb191e1efa2c469e30feb30a6f46e,
        type: 3}
      propertyPath: m_AnchoredPosition.x
      value: -50.099976
      objectReference: {fileID: 0}
    - target: {fileID: 974591683568404956, guid: 842bb191e1efa2c469e30feb30a6f46e,
        type: 3}
      propertyPath: m_AnchoredPosition.y
      value: -56.63997
      objectReference: {fileID: 0}
    - target: {fileID: 974591683568404956, guid: 842bb191e1efa2c469e30feb30a6f46e,
        type: 3}
      propertyPath: m_SizeDelta.x
      value: -633.9
      objectReference: {fileID: 0}
    - target: {fileID: 974591683568404956, guid: 842bb191e1efa2c469e30feb30a6f46e,
        type: 3}
      propertyPath: m_SizeDelta.y
      value: 634.88
      objectReference: {fileID: 0}
    - target: {fileID: 974591683568404956, guid: 842bb191e1efa2c469e30feb30a6f46e,
        type: 3}
      propertyPath: m_AnchorMin.x
      value: 0
      objectReference: {fileID: 0}
    - target: {fileID: 974591683568404956, guid: 842bb191e1efa2c469e30feb30a6f46e,
        type: 3}
      propertyPath: m_AnchorMin.y
      value: 0.5
      objectReference: {fileID: 0}
    - target: {fileID: 974591683568404956, guid: 842bb191e1efa2c469e30feb30a6f46e,
        type: 3}
      propertyPath: m_AnchorMax.x
      value: 1
      objectReference: {fileID: 0}
    - target: {fileID: 974591683568404956, guid: 842bb191e1efa2c469e30feb30a6f46e,
        type: 3}
      propertyPath: m_AnchorMax.y
      value: 0.5
      objectReference: {fileID: 0}
    - target: {fileID: 974591683568404956, guid: 842bb191e1efa2c469e30feb30a6f46e,
        type: 3}
      propertyPath: m_Pivot.x
      value: 0.5
      objectReference: {fileID: 0}
    - target: {fileID: 974591683568404956, guid: 842bb191e1efa2c469e30feb30a6f46e,
        type: 3}
      propertyPath: m_Pivot.y
      value: 0.5
      objectReference: {fileID: 0}
    - target: {fileID: 974591683568404957, guid: 842bb191e1efa2c469e30feb30a6f46e,
        type: 3}
      propertyPath: m_Name
      value: Text (1)
      objectReference: {fileID: 0}
    - target: {fileID: 974591683568404959, guid: 842bb191e1efa2c469e30feb30a6f46e,
        type: 3}
      propertyPath: m_Text
      value: "\u0438\u0437\u043B\u043E\u0436\u0435\u043D\u043D\u043E\u0439 \u0432
        \n\u044D\u0442\u043E\u043C \u043F\u0438\u0441\u044C\u043C\u0435, \n\u0437\u0430\u0432\u0438\u0441\u0438\u043B\u0430
        \u0441\u0443\u0434\u044C\u0431\u0430 \n\u0442\u043E\u043C\u0441\u043A\u043E\u0439
        \u0437\u0435\u043C\u043B\u0438. \n\u0422\u043E\u043B\u044C\u043A\u043E \u0432\u043E\u0442
        \n\u043F\u0440\u043E\u0447\u0435\u0441\u0442\u044C \u0435\u0451 \n\u043D\u0435\u043F\u0440\u043E\u0441\u0442\u043E,
        \u044F\u0437\u044B\u043A \n\u0445\u043E\u0442\u044C \u0438 \u0440\u0443\u0441\u0441\u043A\u0438\u0439,
        \n\u043D\u043E XVII \u0432\u0435\u043A\u0430."
      objectReference: {fileID: 0}
    - target: {fileID: 974591683568404959, guid: 842bb191e1efa2c469e30feb30a6f46e,
        type: 3}
      propertyPath: m_FontData.m_RichText
      value: 1
      objectReference: {fileID: 0}
    - target: {fileID: 974591683568404959, guid: 842bb191e1efa2c469e30feb30a6f46e,
        type: 3}
      propertyPath: m_FontData.m_Alignment
      value: 0
      objectReference: {fileID: 0}
    - target: {fileID: 974591683568404959, guid: 842bb191e1efa2c469e30feb30a6f46e,
        type: 3}
      propertyPath: m_FontData.m_BestFit
      value: 0
      objectReference: {fileID: 0}
    - target: {fileID: 974591683568404959, guid: 842bb191e1efa2c469e30feb30a6f46e,
        type: 3}
      propertyPath: m_FontData.m_FontSize
      value: 52
      objectReference: {fileID: 0}
    - target: {fileID: 974591683568404959, guid: 842bb191e1efa2c469e30feb30a6f46e,
        type: 3}
      propertyPath: m_FontData.m_MinSize
      value: 49
      objectReference: {fileID: 0}
    m_RemovedComponents: []
  m_SourcePrefab: {fileID: 100100000, guid: 842bb191e1efa2c469e30feb30a6f46e, type: 3}
--- !u!224 &1902254680 stripped
RectTransform:
  m_CorrespondingSourceObject: {fileID: 974591683568404956, guid: 842bb191e1efa2c469e30feb30a6f46e,
    type: 3}
  m_PrefabInstance: {fileID: 1902254679}
  m_PrefabAsset: {fileID: 0}
--- !u!1001 &1987765173
PrefabInstance:
  m_ObjectHideFlags: 0
  serializedVersion: 2
  m_Modification:
    m_TransformParent: {fileID: 691788391}
    m_Modifications:
    - target: {fileID: 974591683568404956, guid: 842bb191e1efa2c469e30feb30a6f46e,
        type: 3}
      propertyPath: m_LocalPosition.x
      value: 0
      objectReference: {fileID: 0}
    - target: {fileID: 974591683568404956, guid: 842bb191e1efa2c469e30feb30a6f46e,
        type: 3}
      propertyPath: m_LocalPosition.y
      value: 0
      objectReference: {fileID: 0}
    - target: {fileID: 974591683568404956, guid: 842bb191e1efa2c469e30feb30a6f46e,
        type: 3}
      propertyPath: m_LocalPosition.z
      value: 0
      objectReference: {fileID: 0}
    - target: {fileID: 974591683568404956, guid: 842bb191e1efa2c469e30feb30a6f46e,
        type: 3}
      propertyPath: m_LocalRotation.x
      value: 0
      objectReference: {fileID: 0}
    - target: {fileID: 974591683568404956, guid: 842bb191e1efa2c469e30feb30a6f46e,
        type: 3}
      propertyPath: m_LocalRotation.y
      value: 0
      objectReference: {fileID: 0}
    - target: {fileID: 974591683568404956, guid: 842bb191e1efa2c469e30feb30a6f46e,
        type: 3}
      propertyPath: m_LocalRotation.z
      value: 0
      objectReference: {fileID: 0}
    - target: {fileID: 974591683568404956, guid: 842bb191e1efa2c469e30feb30a6f46e,
        type: 3}
      propertyPath: m_LocalRotation.w
      value: 1
      objectReference: {fileID: 0}
    - target: {fileID: 974591683568404956, guid: 842bb191e1efa2c469e30feb30a6f46e,
        type: 3}
      propertyPath: m_RootOrder
      value: 1
      objectReference: {fileID: 0}
    - target: {fileID: 974591683568404956, guid: 842bb191e1efa2c469e30feb30a6f46e,
        type: 3}
      propertyPath: m_LocalEulerAnglesHint.x
      value: 0
      objectReference: {fileID: 0}
    - target: {fileID: 974591683568404956, guid: 842bb191e1efa2c469e30feb30a6f46e,
        type: 3}
      propertyPath: m_LocalEulerAnglesHint.y
      value: 0
      objectReference: {fileID: 0}
    - target: {fileID: 974591683568404956, guid: 842bb191e1efa2c469e30feb30a6f46e,
        type: 3}
      propertyPath: m_LocalEulerAnglesHint.z
      value: 0
      objectReference: {fileID: 0}
    - target: {fileID: 974591683568404956, guid: 842bb191e1efa2c469e30feb30a6f46e,
        type: 3}
      propertyPath: m_AnchoredPosition.x
      value: 120.70001
      objectReference: {fileID: 0}
    - target: {fileID: 974591683568404956, guid: 842bb191e1efa2c469e30feb30a6f46e,
        type: 3}
      propertyPath: m_AnchoredPosition.y
      value: 365.37997
      objectReference: {fileID: 0}
    - target: {fileID: 974591683568404956, guid: 842bb191e1efa2c469e30feb30a6f46e,
        type: 3}
      propertyPath: m_SizeDelta.x
      value: -292.4
      objectReference: {fileID: 0}
    - target: {fileID: 974591683568404956, guid: 842bb191e1efa2c469e30feb30a6f46e,
        type: 3}
      propertyPath: m_SizeDelta.y
      value: 209.2
      objectReference: {fileID: 0}
    - target: {fileID: 974591683568404956, guid: 842bb191e1efa2c469e30feb30a6f46e,
        type: 3}
      propertyPath: m_AnchorMin.x
      value: 0
      objectReference: {fileID: 0}
    - target: {fileID: 974591683568404956, guid: 842bb191e1efa2c469e30feb30a6f46e,
        type: 3}
      propertyPath: m_AnchorMin.y
      value: 0.5
      objectReference: {fileID: 0}
    - target: {fileID: 974591683568404956, guid: 842bb191e1efa2c469e30feb30a6f46e,
        type: 3}
      propertyPath: m_AnchorMax.x
      value: 1
      objectReference: {fileID: 0}
    - target: {fileID: 974591683568404956, guid: 842bb191e1efa2c469e30feb30a6f46e,
        type: 3}
      propertyPath: m_AnchorMax.y
      value: 0.5
      objectReference: {fileID: 0}
    - target: {fileID: 974591683568404956, guid: 842bb191e1efa2c469e30feb30a6f46e,
        type: 3}
      propertyPath: m_Pivot.x
      value: 0.5
      objectReference: {fileID: 0}
    - target: {fileID: 974591683568404956, guid: 842bb191e1efa2c469e30feb30a6f46e,
        type: 3}
      propertyPath: m_Pivot.y
      value: 0.5
      objectReference: {fileID: 0}
    - target: {fileID: 974591683568404957, guid: 842bb191e1efa2c469e30feb30a6f46e,
        type: 3}
      propertyPath: m_Name
      value: Text
      objectReference: {fileID: 0}
    - target: {fileID: 974591683568404959, guid: 842bb191e1efa2c469e30feb30a6f46e,
        type: 3}
      propertyPath: m_Text
      value: "\u0435\u0440\u0435\u0434 \u0432\u0430\u043C\u0438 \u0441\u0442\u0430\u0440\u0438\u043D\u043D\u0430\u044F\n\u0433\u0440\u0430\u043C\u043E\u0442\u0430
        \u043E\u0442 \u0441\u0430\u043C\u043E\u0433\u043E \u0446\u0430\u0440\u044F
        \u0411\u043E\u0440\u0438\u0441\u0430 \n\u0413\u043E\u0434\u0443\u043D\u043E\u0432\u0430.
        \u041E\u0442 \u0432\u043E\u043B\u0438 \u0433\u043E\u0441\u0443\u0434\u0430\u0440\u044F,"
      objectReference: {fileID: 0}
    - target: {fileID: 974591683568404959, guid: 842bb191e1efa2c469e30feb30a6f46e,
        type: 3}
      propertyPath: m_FontData.m_RichText
      value: 1
      objectReference: {fileID: 0}
    - target: {fileID: 974591683568404959, guid: 842bb191e1efa2c469e30feb30a6f46e,
        type: 3}
      propertyPath: m_FontData.m_Alignment
      value: 6
      objectReference: {fileID: 0}
    - target: {fileID: 974591683568404959, guid: 842bb191e1efa2c469e30feb30a6f46e,
        type: 3}
      propertyPath: m_FontData.m_BestFit
      value: 0
      objectReference: {fileID: 0}
    - target: {fileID: 974591683568404959, guid: 842bb191e1efa2c469e30feb30a6f46e,
        type: 3}
      propertyPath: m_FontData.m_FontSize
      value: 52
      objectReference: {fileID: 0}
    - target: {fileID: 974591683568404959, guid: 842bb191e1efa2c469e30feb30a6f46e,
        type: 3}
      propertyPath: m_FontData.m_MinSize
      value: 49
      objectReference: {fileID: 0}
    m_RemovedComponents: []
  m_SourcePrefab: {fileID: 100100000, guid: 842bb191e1efa2c469e30feb30a6f46e, type: 3}
--- !u!224 &1987765174 stripped
RectTransform:
  m_CorrespondingSourceObject: {fileID: 974591683568404956, guid: 842bb191e1efa2c469e30feb30a6f46e,
    type: 3}
  m_PrefabInstance: {fileID: 1987765173}
  m_PrefabAsset: {fileID: 0}
--- !u!1 &974591682224592376
GameObject:
  m_ObjectHideFlags: 0
  m_CorrespondingSourceObject: {fileID: 0}
  m_PrefabInstance: {fileID: 0}
  m_PrefabAsset: {fileID: 0}
  serializedVersion: 6
  m_Component:
  - component: {fileID: 974591682224592377}
  - component: {fileID: 974591682224592379}
  - component: {fileID: 974591682224592378}
  m_Layer: 5
  m_Name: Text (2)
  m_TagString: Untagged
  m_Icon: {fileID: 0}
  m_NavMeshLayer: 0
  m_StaticEditorFlags: 0
  m_IsActive: 1
--- !u!224 &974591682224592377
RectTransform:
  m_ObjectHideFlags: 0
  m_CorrespondingSourceObject: {fileID: 0}
  m_PrefabInstance: {fileID: 0}
  m_PrefabAsset: {fileID: 0}
  m_GameObject: {fileID: 974591682224592376}
  m_LocalRotation: {x: 0, y: 0, z: 0, w: 1}
  m_LocalPosition: {x: 0, y: 0, z: 0}
  m_LocalScale: {x: 1, y: 1, z: 1}
  m_Children: []
  m_Father: {fileID: 691788391}
  m_RootOrder: 6
  m_LocalEulerAnglesHint: {x: 0, y: 0, z: 0}
  m_AnchorMin: {x: 0, y: 0.5}
  m_AnchorMax: {x: 1, y: 0.5}
  m_AnchoredPosition: {x: 206.90004, y: -457.62994}
  m_SizeDelta: {x: -464.9, y: 167.1}
  m_Pivot: {x: 0.5, y: 0.5}
--- !u!114 &974591682224592378
MonoBehaviour:
  m_ObjectHideFlags: 0
  m_CorrespondingSourceObject: {fileID: 0}
  m_PrefabInstance: {fileID: 0}
  m_PrefabAsset: {fileID: 0}
  m_GameObject: {fileID: 974591682224592376}
  m_Enabled: 1
  m_EditorHideFlags: 0
  m_Script: {fileID: 11500000, guid: 5f7201a12d95ffc409449d95f23cf332, type: 3}
  m_Name: 
  m_EditorClassIdentifier: 
  m_Material: {fileID: 0}
  m_Color: {r: 0.4117647, g: 0.2901961, b: 0.33333334, a: 1}
  m_RaycastTarget: 1
  m_OnCullStateChanged:
    m_PersistentCalls:
      m_Calls: []
  m_FontData:
    m_Font: {fileID: 12800000, guid: 194f0f4a7389fee4e8d22fac922891a8, type: 3}
    m_FontSize: 42
    m_FontStyle: 0
    m_BestFit: 0
    m_MinSize: 42
    m_MaxSize: 300
    m_Alignment: 2
    m_AlignByGeometry: 0
    m_RichText: 1
    m_HorizontalOverflow: 0
    m_VerticalOverflow: 0
    m_LineSpacing: 1
  m_Text: "\u0427\u0442\u043E\u0431\u044B \u043F\u043E\u043D\u044F\u0442\u044C, \u0447\u0442\u043E
    \u0442\u0443\u0442 \u043D\u0430\u043F\u0438\u0441\u0430\u043D\u043E, \u0432\u0430\u043C
    \u043D\u0443\u0436\u043D\u043E \u043E\u0442\u043F\u0440\u0430\u0432\u0438\u0442\u044C\u0441\u044F
    \u0432 \u043E\u0441\u043E\u0431\u0435\u043D\u043D\u043E\u0435 \u043C\u0435\u0441\u0442\u043E."
--- !u!222 &974591682224592379
CanvasRenderer:
  m_ObjectHideFlags: 0
  m_CorrespondingSourceObject: {fileID: 0}
  m_PrefabInstance: {fileID: 0}
  m_PrefabAsset: {fileID: 0}
  m_GameObject: {fileID: 974591682224592376}
  m_CullTransparentMesh: 0
