%YAML 1.1
%TAG !u! tag:unity3d.com,2011:
--- !u!29 &1
OcclusionCullingSettings:
  m_ObjectHideFlags: 0
  serializedVersion: 2
  m_OcclusionBakeSettings:
    smallestOccluder: 5
    smallestHole: 0.25
    backfaceThreshold: 100
  m_SceneGUID: 00000000000000000000000000000000
  m_OcclusionCullingData: {fileID: 0}
--- !u!104 &2
RenderSettings:
  m_ObjectHideFlags: 0
  serializedVersion: 9
  m_Fog: 0
  m_FogColor: {r: 0.5, g: 0.5, b: 0.5, a: 1}
  m_FogMode: 3
  m_FogDensity: 0.01
  m_LinearFogStart: 0
  m_LinearFogEnd: 300
  m_AmbientSkyColor: {r: 0.212, g: 0.227, b: 0.259, a: 1}
  m_AmbientEquatorColor: {r: 0.114, g: 0.125, b: 0.133, a: 1}
  m_AmbientGroundColor: {r: 0.047, g: 0.043, b: 0.035, a: 1}
  m_AmbientIntensity: 1
  m_AmbientMode: 0
  m_SubtractiveShadowColor: {r: 0.42, g: 0.478, b: 0.627, a: 1}
  m_SkyboxMaterial: {fileID: 10304, guid: 0000000000000000f000000000000000, type: 0}
  m_HaloStrength: 0.5
  m_FlareStrength: 1
  m_FlareFadeSpeed: 3
  m_HaloTexture: {fileID: 0}
  m_SpotCookie: {fileID: 10001, guid: 0000000000000000e000000000000000, type: 0}
  m_DefaultReflectionMode: 0
  m_DefaultReflectionResolution: 128
  m_ReflectionBounces: 1
  m_ReflectionIntensity: 1
  m_CustomReflection: {fileID: 0}
  m_Sun: {fileID: 0}
  m_IndirectSpecularColor: {r: 0, g: 0, b: 0, a: 1}
  m_UseRadianceAmbientProbe: 0
--- !u!157 &3
LightmapSettings:
  m_ObjectHideFlags: 0
  serializedVersion: 11
  m_GIWorkflowMode: 1
  m_GISettings:
    serializedVersion: 2
    m_BounceScale: 1
    m_IndirectOutputScale: 1
    m_AlbedoBoost: 1
    m_EnvironmentLightingMode: 0
    m_EnableBakedLightmaps: 1
    m_EnableRealtimeLightmaps: 0
  m_LightmapEditorSettings:
    serializedVersion: 12
    m_Resolution: 2
    m_BakeResolution: 40
    m_AtlasSize: 1024
    m_AO: 0
    m_AOMaxDistance: 1
    m_CompAOExponent: 1
    m_CompAOExponentDirect: 0
    m_ExtractAmbientOcclusion: 0
    m_Padding: 2
    m_LightmapParameters: {fileID: 0}
    m_LightmapsBakeMode: 1
    m_TextureCompression: 1
    m_FinalGather: 0
    m_FinalGatherFiltering: 1
    m_FinalGatherRayCount: 256
    m_ReflectionCompression: 2
    m_MixedBakeMode: 2
    m_BakeBackend: 1
    m_PVRSampling: 1
    m_PVRDirectSampleCount: 32
    m_PVRSampleCount: 500
    m_PVRBounces: 2
    m_PVREnvironmentSampleCount: 500
    m_PVREnvironmentReferencePointCount: 2048
    m_PVRFilteringMode: 2
    m_PVRDenoiserTypeDirect: 0
    m_PVRDenoiserTypeIndirect: 0
    m_PVRDenoiserTypeAO: 0
    m_PVRFilterTypeDirect: 0
    m_PVRFilterTypeIndirect: 0
    m_PVRFilterTypeAO: 0
    m_PVREnvironmentMIS: 0
    m_PVRCulling: 1
    m_PVRFilteringGaussRadiusDirect: 1
    m_PVRFilteringGaussRadiusIndirect: 5
    m_PVRFilteringGaussRadiusAO: 2
    m_PVRFilteringAtrousPositionSigmaDirect: 0.5
    m_PVRFilteringAtrousPositionSigmaIndirect: 2
    m_PVRFilteringAtrousPositionSigmaAO: 1
    m_ExportTrainingData: 0
    m_TrainingDataDestination: TrainingData
    m_LightProbeSampleCountMultiplier: 4
  m_LightingDataAsset: {fileID: 0}
  m_UseShadowmask: 1
--- !u!196 &4
NavMeshSettings:
  serializedVersion: 2
  m_ObjectHideFlags: 0
  m_BuildSettings:
    serializedVersion: 2
    agentTypeID: 0
    agentRadius: 0.5
    agentHeight: 2
    agentSlope: 45
    agentClimb: 0.4
    ledgeDropHeight: 0
    maxJumpAcrossDistance: 0
    minRegionArea: 2
    manualCellSize: 0
    cellSize: 0.16666667
    manualTileSize: 0
    tileSize: 256
    accuratePlacement: 0
    debug:
      m_Flags: 0
  m_NavMeshData: {fileID: 0}
--- !u!1001 &313722217
PrefabInstance:
  m_ObjectHideFlags: 0
  serializedVersion: 2
  m_Modification:
    m_TransformParent: {fileID: 1978081085}
    m_Modifications:
    - target: {fileID: 2729401001709935186, guid: 3f271e192dfc2c640b331327ae4fa2e2,
        type: 3}
      propertyPath: m_Name
      value: Background
      objectReference: {fileID: 0}
    - target: {fileID: 2729401001709935197, guid: 3f271e192dfc2c640b331327ae4fa2e2,
        type: 3}
      propertyPath: m_LocalPosition.x
      value: 0
      objectReference: {fileID: 0}
    - target: {fileID: 2729401001709935197, guid: 3f271e192dfc2c640b331327ae4fa2e2,
        type: 3}
      propertyPath: m_LocalPosition.y
      value: 0
      objectReference: {fileID: 0}
    - target: {fileID: 2729401001709935197, guid: 3f271e192dfc2c640b331327ae4fa2e2,
        type: 3}
      propertyPath: m_LocalPosition.z
      value: 0
      objectReference: {fileID: 0}
    - target: {fileID: 2729401001709935197, guid: 3f271e192dfc2c640b331327ae4fa2e2,
        type: 3}
      propertyPath: m_LocalRotation.x
      value: 0
      objectReference: {fileID: 0}
    - target: {fileID: 2729401001709935197, guid: 3f271e192dfc2c640b331327ae4fa2e2,
        type: 3}
      propertyPath: m_LocalRotation.y
      value: 0
      objectReference: {fileID: 0}
    - target: {fileID: 2729401001709935197, guid: 3f271e192dfc2c640b331327ae4fa2e2,
        type: 3}
      propertyPath: m_LocalRotation.z
      value: 0
      objectReference: {fileID: 0}
    - target: {fileID: 2729401001709935197, guid: 3f271e192dfc2c640b331327ae4fa2e2,
        type: 3}
      propertyPath: m_LocalRotation.w
      value: 1
      objectReference: {fileID: 0}
    - target: {fileID: 2729401001709935197, guid: 3f271e192dfc2c640b331327ae4fa2e2,
        type: 3}
      propertyPath: m_RootOrder
      value: 0
      objectReference: {fileID: 0}
    - target: {fileID: 2729401001709935197, guid: 3f271e192dfc2c640b331327ae4fa2e2,
        type: 3}
      propertyPath: m_LocalEulerAnglesHint.x
      value: 0
      objectReference: {fileID: 0}
    - target: {fileID: 2729401001709935197, guid: 3f271e192dfc2c640b331327ae4fa2e2,
        type: 3}
      propertyPath: m_LocalEulerAnglesHint.y
      value: 0
      objectReference: {fileID: 0}
    - target: {fileID: 2729401001709935197, guid: 3f271e192dfc2c640b331327ae4fa2e2,
        type: 3}
      propertyPath: m_LocalEulerAnglesHint.z
      value: 0
      objectReference: {fileID: 0}
    - target: {fileID: 2729401001709935197, guid: 3f271e192dfc2c640b331327ae4fa2e2,
        type: 3}
      propertyPath: m_AnchoredPosition.x
      value: 0
      objectReference: {fileID: 0}
    - target: {fileID: 2729401001709935197, guid: 3f271e192dfc2c640b331327ae4fa2e2,
        type: 3}
      propertyPath: m_AnchoredPosition.y
      value: 0
      objectReference: {fileID: 0}
    - target: {fileID: 2729401001709935197, guid: 3f271e192dfc2c640b331327ae4fa2e2,
        type: 3}
      propertyPath: m_SizeDelta.x
      value: 0
      objectReference: {fileID: 0}
    - target: {fileID: 2729401001709935197, guid: 3f271e192dfc2c640b331327ae4fa2e2,
        type: 3}
      propertyPath: m_SizeDelta.y
      value: 0
      objectReference: {fileID: 0}
    - target: {fileID: 2729401001709935197, guid: 3f271e192dfc2c640b331327ae4fa2e2,
        type: 3}
      propertyPath: m_AnchorMin.x
      value: 0
      objectReference: {fileID: 0}
    - target: {fileID: 2729401001709935197, guid: 3f271e192dfc2c640b331327ae4fa2e2,
        type: 3}
      propertyPath: m_AnchorMin.y
      value: 0
      objectReference: {fileID: 0}
    - target: {fileID: 2729401001709935197, guid: 3f271e192dfc2c640b331327ae4fa2e2,
        type: 3}
      propertyPath: m_AnchorMax.x
      value: 1
      objectReference: {fileID: 0}
    - target: {fileID: 2729401001709935197, guid: 3f271e192dfc2c640b331327ae4fa2e2,
        type: 3}
      propertyPath: m_AnchorMax.y
      value: 1
      objectReference: {fileID: 0}
    - target: {fileID: 2729401001709935197, guid: 3f271e192dfc2c640b331327ae4fa2e2,
        type: 3}
      propertyPath: m_Pivot.x
      value: 0.5
      objectReference: {fileID: 0}
    - target: {fileID: 2729401001709935197, guid: 3f271e192dfc2c640b331327ae4fa2e2,
        type: 3}
      propertyPath: m_Pivot.y
      value: 0.5
      objectReference: {fileID: 0}
    m_RemovedComponents: []
  m_SourcePrefab: {fileID: 100100000, guid: 3f271e192dfc2c640b331327ae4fa2e2, type: 3}
--- !u!224 &313722218 stripped
RectTransform:
  m_CorrespondingSourceObject: {fileID: 2729401001709935197, guid: 3f271e192dfc2c640b331327ae4fa2e2,
    type: 3}
  m_PrefabInstance: {fileID: 313722217}
  m_PrefabAsset: {fileID: 0}
--- !u!1 &652393561
GameObject:
  m_ObjectHideFlags: 0
  m_CorrespondingSourceObject: {fileID: 0}
  m_PrefabInstance: {fileID: 0}
  m_PrefabAsset: {fileID: 0}
  serializedVersion: 6
  m_Component:
  - component: {fileID: 652393564}
  - component: {fileID: 652393563}
  - component: {fileID: 652393562}
  m_Layer: 0
  m_Name: EventSystem
  m_TagString: Untagged
  m_Icon: {fileID: 0}
  m_NavMeshLayer: 0
  m_StaticEditorFlags: 0
  m_IsActive: 1
--- !u!114 &652393562
MonoBehaviour:
  m_ObjectHideFlags: 0
  m_CorrespondingSourceObject: {fileID: 0}
  m_PrefabInstance: {fileID: 0}
  m_PrefabAsset: {fileID: 0}
  m_GameObject: {fileID: 652393561}
  m_Enabled: 1
  m_EditorHideFlags: 0
  m_Script: {fileID: 11500000, guid: 4f231c4fb786f3946a6b90b886c48677, type: 3}
  m_Name: 
  m_EditorClassIdentifier: 
  m_HorizontalAxis: Horizontal
  m_VerticalAxis: Vertical
  m_SubmitButton: Submit
  m_CancelButton: Cancel
  m_InputActionsPerSecond: 10
  m_RepeatDelay: 0.5
  m_ForceModuleActive: 0
--- !u!114 &652393563
MonoBehaviour:
  m_ObjectHideFlags: 0
  m_CorrespondingSourceObject: {fileID: 0}
  m_PrefabInstance: {fileID: 0}
  m_PrefabAsset: {fileID: 0}
  m_GameObject: {fileID: 652393561}
  m_Enabled: 1
  m_EditorHideFlags: 0
  m_Script: {fileID: 11500000, guid: 76c392e42b5098c458856cdf6ecaaaa1, type: 3}
  m_Name: 
  m_EditorClassIdentifier: 
  m_FirstSelected: {fileID: 0}
  m_sendNavigationEvents: 1
  m_DragThreshold: 10
--- !u!4 &652393564
Transform:
  m_ObjectHideFlags: 0
  m_CorrespondingSourceObject: {fileID: 0}
  m_PrefabInstance: {fileID: 0}
  m_PrefabAsset: {fileID: 0}
  m_GameObject: {fileID: 652393561}
  m_LocalRotation: {x: 0, y: 0, z: 0, w: 1}
  m_LocalPosition: {x: 0, y: 0, z: 0}
  m_LocalScale: {x: 1, y: 1, z: 1}
  m_Children: []
  m_Father: {fileID: 0}
  m_RootOrder: 2
  m_LocalEulerAnglesHint: {x: 0, y: 0, z: 0}
--- !u!1 &963194225
GameObject:
  m_ObjectHideFlags: 0
  m_CorrespondingSourceObject: {fileID: 0}
  m_PrefabInstance: {fileID: 0}
  m_PrefabAsset: {fileID: 0}
  serializedVersion: 6
  m_Component:
  - component: {fileID: 963194228}
  - component: {fileID: 963194227}
  - component: {fileID: 963194226}
  - component: {fileID: 963194229}
  m_Layer: 0
  m_Name: Main Camera
  m_TagString: MainCamera
  m_Icon: {fileID: 0}
  m_NavMeshLayer: 0
  m_StaticEditorFlags: 0
  m_IsActive: 1
--- !u!81 &963194226
AudioListener:
  m_ObjectHideFlags: 0
  m_CorrespondingSourceObject: {fileID: 0}
  m_PrefabInstance: {fileID: 0}
  m_PrefabAsset: {fileID: 0}
  m_GameObject: {fileID: 963194225}
  m_Enabled: 1
--- !u!20 &963194227
Camera:
  m_ObjectHideFlags: 0
  m_CorrespondingSourceObject: {fileID: 0}
  m_PrefabInstance: {fileID: 0}
  m_PrefabAsset: {fileID: 0}
  m_GameObject: {fileID: 963194225}
  m_Enabled: 1
  serializedVersion: 2
  m_ClearFlags: 2
  m_BackGroundColor: {r: 0.19215687, g: 0.3019608, b: 0.4745098, a: 0}
  m_projectionMatrixMode: 1
  m_GateFitMode: 2
  m_FOVAxisMode: 0
  m_SensorSize: {x: 36, y: 24}
  m_LensShift: {x: 0, y: 0}
  m_FocalLength: 50
  m_NormalizedViewPortRect:
    serializedVersion: 2
    x: 0
    y: 0
    width: 1
    height: 1
  near clip plane: 0.3
  far clip plane: 1000
  field of view: 60
  orthographic: 0
  orthographic size: 5
  m_Depth: -1
  m_CullingMask:
    serializedVersion: 2
    m_Bits: 4294967295
  m_RenderingPath: -1
  m_TargetTexture: {fileID: 0}
  m_TargetDisplay: 0
  m_TargetEye: 3
  m_HDR: 1
  m_AllowMSAA: 1
  m_AllowDynamicResolution: 0
  m_ForceIntoRT: 0
  m_OcclusionCulling: 1
  m_StereoConvergence: 10
  m_StereoSeparation: 0.022
--- !u!4 &963194228
Transform:
  m_ObjectHideFlags: 0
  m_CorrespondingSourceObject: {fileID: 0}
  m_PrefabInstance: {fileID: 0}
  m_PrefabAsset: {fileID: 0}
  m_GameObject: {fileID: 963194225}
  m_LocalRotation: {x: 0, y: 0, z: 0, w: 1}
  m_LocalPosition: {x: 0, y: 1, z: -10}
  m_LocalScale: {x: 1, y: 1, z: 1}
  m_Children: []
  m_Father: {fileID: 0}
  m_RootOrder: 0
  m_LocalEulerAnglesHint: {x: 0, y: 0, z: 0}
--- !u!114 &963194229
MonoBehaviour:
  m_ObjectHideFlags: 0
  m_CorrespondingSourceObject: {fileID: 0}
  m_PrefabInstance: {fileID: 0}
  m_PrefabAsset: {fileID: 0}
  m_GameObject: {fileID: 963194225}
  m_Enabled: 1
  m_EditorHideFlags: 0
  m_Script: {fileID: 11500000, guid: 8e98d60988890234598464851b881540, type: 3}
  m_Name: 
  m_EditorClassIdentifier: 
  prevScene: history.0.AR
  nextScene: history.7.AR
  helpScene: 
--- !u!224 &1483497120 stripped
RectTransform:
  m_CorrespondingSourceObject: {fileID: 6871664986798862255, guid: a6e6d794abbef474a86aed41a0c73fe4,
    type: 3}
  m_PrefabInstance: {fileID: 6871664985325367567}
  m_PrefabAsset: {fileID: 0}
--- !u!224 &1597068487 stripped
RectTransform:
  m_CorrespondingSourceObject: {fileID: 5638431528086504431, guid: 845c78f7ae9170045a078c680559c3bd,
    type: 3}
  m_PrefabInstance: {fileID: 5638431527496111912}
  m_PrefabAsset: {fileID: 0}
--- !u!1001 &1832022713
PrefabInstance:
  m_ObjectHideFlags: 0
  serializedVersion: 2
  m_Modification:
    m_TransformParent: {fileID: 1978081085}
    m_Modifications:
    - target: {fileID: 974591683568404956, guid: 842bb191e1efa2c469e30feb30a6f46e,
        type: 3}
      propertyPath: m_LocalPosition.x
      value: 0
      objectReference: {fileID: 0}
    - target: {fileID: 974591683568404956, guid: 842bb191e1efa2c469e30feb30a6f46e,
        type: 3}
      propertyPath: m_LocalPosition.y
      value: 0
      objectReference: {fileID: 0}
    - target: {fileID: 974591683568404956, guid: 842bb191e1efa2c469e30feb30a6f46e,
        type: 3}
      propertyPath: m_LocalPosition.z
      value: 0
      objectReference: {fileID: 0}
    - target: {fileID: 974591683568404956, guid: 842bb191e1efa2c469e30feb30a6f46e,
        type: 3}
      propertyPath: m_LocalRotation.x
      value: 0
      objectReference: {fileID: 0}
    - target: {fileID: 974591683568404956, guid: 842bb191e1efa2c469e30feb30a6f46e,
        type: 3}
      propertyPath: m_LocalRotation.y
      value: 0
      objectReference: {fileID: 0}
    - target: {fileID: 974591683568404956, guid: 842bb191e1efa2c469e30feb30a6f46e,
        type: 3}
      propertyPath: m_LocalRotation.z
      value: 0
      objectReference: {fileID: 0}
    - target: {fileID: 974591683568404956, guid: 842bb191e1efa2c469e30feb30a6f46e,
        type: 3}
      propertyPath: m_LocalRotation.w
      value: 1
      objectReference: {fileID: 0}
    - target: {fileID: 974591683568404956, guid: 842bb191e1efa2c469e30feb30a6f46e,
        type: 3}
      propertyPath: m_RootOrder
      value: 1
      objectReference: {fileID: 0}
    - target: {fileID: 974591683568404956, guid: 842bb191e1efa2c469e30feb30a6f46e,
        type: 3}
      propertyPath: m_LocalEulerAnglesHint.x
      value: 0
      objectReference: {fileID: 0}
    - target: {fileID: 974591683568404956, guid: 842bb191e1efa2c469e30feb30a6f46e,
        type: 3}
      propertyPath: m_LocalEulerAnglesHint.y
      value: 0
      objectReference: {fileID: 0}
    - target: {fileID: 974591683568404956, guid: 842bb191e1efa2c469e30feb30a6f46e,
        type: 3}
      propertyPath: m_LocalEulerAnglesHint.z
      value: 0
      objectReference: {fileID: 0}
    - target: {fileID: 974591683568404956, guid: 842bb191e1efa2c469e30feb30a6f46e,
        type: 3}
      propertyPath: m_AnchoredPosition.x
      value: 0
      objectReference: {fileID: 0}
    - target: {fileID: 974591683568404956, guid: 842bb191e1efa2c469e30feb30a6f46e,
        type: 3}
      propertyPath: m_AnchoredPosition.y
      value: -0.000022888
      objectReference: {fileID: 0}
    - target: {fileID: 974591683568404956, guid: 842bb191e1efa2c469e30feb30a6f46e,
        type: 3}
      propertyPath: m_SizeDelta.x
      value: -101.3
      objectReference: {fileID: 0}
    - target: {fileID: 974591683568404956, guid: 842bb191e1efa2c469e30feb30a6f46e,
        type: 3}
      propertyPath: m_SizeDelta.y
      value: 501.6
      objectReference: {fileID: 0}
    - target: {fileID: 974591683568404956, guid: 842bb191e1efa2c469e30feb30a6f46e,
        type: 3}
      propertyPath: m_AnchorMin.x
      value: 0
      objectReference: {fileID: 0}
    - target: {fileID: 974591683568404956, guid: 842bb191e1efa2c469e30feb30a6f46e,
        type: 3}
      propertyPath: m_AnchorMin.y
      value: 0.5
      objectReference: {fileID: 0}
    - target: {fileID: 974591683568404956, guid: 842bb191e1efa2c469e30feb30a6f46e,
        type: 3}
      propertyPath: m_AnchorMax.x
      value: 1
      objectReference: {fileID: 0}
    - target: {fileID: 974591683568404956, guid: 842bb191e1efa2c469e30feb30a6f46e,
        type: 3}
      propertyPath: m_AnchorMax.y
      value: 0.5
      objectReference: {fileID: 0}
    - target: {fileID: 974591683568404956, guid: 842bb191e1efa2c469e30feb30a6f46e,
        type: 3}
      propertyPath: m_Pivot.x
      value: 0.5
      objectReference: {fileID: 0}
    - target: {fileID: 974591683568404956, guid: 842bb191e1efa2c469e30feb30a6f46e,
        type: 3}
      propertyPath: m_Pivot.y
      value: 0.5
      objectReference: {fileID: 0}
    - target: {fileID: 974591683568404957, guid: 842bb191e1efa2c469e30feb30a6f46e,
        type: 3}
      propertyPath: m_Name
      value: Text
      objectReference: {fileID: 0}
    - target: {fileID: 974591683568404959, guid: 842bb191e1efa2c469e30feb30a6f46e,
        type: 3}
      propertyPath: m_Text
      value: "\u041D\u0435\u043A\u043E\u0442\u043E\u0440\u044B\u0435 \u043A\u0443\u043F\u0446\u044B
        \u0441\u0442\u0430\u043B\u0438 \u0432\u044B\u0434\u0430\u044E\u0449\u0438\u043C\u0438\u0441\u044F
        \u043C\u0435\u0446\u0435\u043D\u0430\u0442\u0430\u043C\u0438 - \u0436\u0435\u0440\u0442\u0432\u043E\u0432\u0430\u043B\u0438
        \u0441\u0432\u043E\u0438 \u0434\u0435\u043D\u044C\u0433\u0438 \u043D\u0430
        \u043F\u043E\u043C\u043E\u0449\u044C \u0431\u0435\u0434\u043D\u044B\u043C
        \u0438 \u043F\u043E\u0434\u0434\u0435\u0440\u0436\u043A\u0443 \u043E\u0431\u0440\u0430\u0437\u043E\u0432\u0430\u043D\u0438\u044F.
        \u0418\u043C\u0435\u043D\u0430 \u0431\u043E\u043B\u044C\u0448\u0438\u043D\u0441\u0442\u0432\u0430
        \u0438\u0437 \u043D\u0438\u0445 \u043D\u0430\u043C \u0438\u0437\u0432\u0435\u0441\u0442\u043D\u044B.
        \u041D\u043E \u0435\u0441\u0442\u044C \u0441\u0432\u0435\u0434\u0435\u043D\u0438\u044F,
        \u0447\u0442\u043E \u0431\u044B\u043B \u0432 \u0422\u043E\u043C\u0441\u043A\u0435
        \u043E\u0434\u0438\u043D \u043A\u0443\u043F\u0435\u0446, \u0441\u043E\u0431\u0438\u0440\u0430\u0432\u0448\u0438\u0439\u0441\u044F
        \u043F\u043E\u0436\u0435\u0440\u0442\u0432\u043E\u0432\u0430\u0442\u044C
        \u043D\u0435\u043C\u0430\u043B\u0443\u044E \u0441\u0443\u043C\u043C\u0443
        \u0422\u043E\u043C\u0441\u043A\u043E\u043C\u0443 \u0443\u043D\u0438\u0432\u0435\u0440\u0441\u0438\u0442\u0435\u0442\u0443.
        \u0414\u0430 \u0442\u043E\u043B\u044C\u043A\u043E \u043F\u0440\u043E\u043F\u0430\u043B
        \u043E\u043D \u0432 \u043D\u0430\u0447\u0430\u043B\u0435 XX \u0432\u0435\u043A\u0430.
        \u0418 \u043D\u0438 \u043E \u043D\u0451\u043C, \u043D\u0438 \u043E \u0435\u0433\u043E
        \u0434\u0435\u043D\u044C\u0433\u0430\u0445 \u043D\u0438\u0447\u0435\u0433\u043E
        \u0431\u043E\u043B\u0435\u0435 \u0438\u0437\u0432\u0435\u0441\u0442\u043D\u043E
        \u043D\u0435 \u0431\u044B\u043B\u043E."
      objectReference: {fileID: 0}
    - target: {fileID: 974591683568404959, guid: 842bb191e1efa2c469e30feb30a6f46e,
        type: 3}
      propertyPath: m_FontData.m_BestFit
      value: 0
      objectReference: {fileID: 0}
    - target: {fileID: 974591683568404959, guid: 842bb191e1efa2c469e30feb30a6f46e,
        type: 3}
      propertyPath: m_FontData.m_FontSize
      value: 46
      objectReference: {fileID: 0}
    - target: {fileID: 974591683568404959, guid: 842bb191e1efa2c469e30feb30a6f46e,
        type: 3}
      propertyPath: m_FontData.m_MinSize
      value: 27
      objectReference: {fileID: 0}
    m_RemovedComponents: []
  m_SourcePrefab: {fileID: 100100000, guid: 842bb191e1efa2c469e30feb30a6f46e, type: 3}
--- !u!224 &1832022714 stripped
RectTransform:
  m_CorrespondingSourceObject: {fileID: 974591683568404956, guid: 842bb191e1efa2c469e30feb30a6f46e,
    type: 3}
  m_PrefabInstance: {fileID: 1832022713}
  m_PrefabAsset: {fileID: 0}
--- !u!1 &1978081081
GameObject:
  m_ObjectHideFlags: 0
  m_CorrespondingSourceObject: {fileID: 0}
  m_PrefabInstance: {fileID: 0}
  m_PrefabAsset: {fileID: 0}
  serializedVersion: 6
  m_Component:
  - component: {fileID: 1978081085}
  - component: {fileID: 1978081084}
  - component: {fileID: 1978081083}
  - component: {fileID: 1978081082}
  m_Layer: 5
  m_Name: Canvas
  m_TagString: Untagged
  m_Icon: {fileID: 0}
  m_NavMeshLayer: 0
  m_StaticEditorFlags: 0
  m_IsActive: 1
--- !u!114 &1978081082
MonoBehaviour:
  m_ObjectHideFlags: 0
  m_CorrespondingSourceObject: {fileID: 0}
  m_PrefabInstance: {fileID: 0}
  m_PrefabAsset: {fileID: 0}
  m_GameObject: {fileID: 1978081081}
  m_Enabled: 1
  m_EditorHideFlags: 0
  m_Script: {fileID: 11500000, guid: dc42784cf147c0c48a680349fa168899, type: 3}
  m_Name: 
  m_EditorClassIdentifier: 
  m_IgnoreReversedGraphics: 1
  m_BlockingObjects: 0
  m_BlockingMask:
    serializedVersion: 2
    m_Bits: 4294967295
--- !u!114 &1978081083
MonoBehaviour:
  m_ObjectHideFlags: 0
  m_CorrespondingSourceObject: {fileID: 0}
  m_PrefabInstance: {fileID: 0}
  m_PrefabAsset: {fileID: 0}
  m_GameObject: {fileID: 1978081081}
  m_Enabled: 1
  m_EditorHideFlags: 0
  m_Script: {fileID: 11500000, guid: 0cd44c1031e13a943bb63640046fad76, type: 3}
  m_Name: 
  m_EditorClassIdentifier: 
  m_UiScaleMode: 1
  m_ReferencePixelsPerUnit: 100
  m_ScaleFactor: 1
  m_ReferenceResolution: {x: 1024, y: 1280}
  m_ScreenMatchMode: 0
  m_MatchWidthOrHeight: 0
  m_PhysicalUnit: 3
  m_FallbackScreenDPI: 96
  m_DefaultSpriteDPI: 96
  m_DynamicPixelsPerUnit: 1
--- !u!223 &1978081084
Canvas:
  m_ObjectHideFlags: 0
  m_CorrespondingSourceObject: {fileID: 0}
  m_PrefabInstance: {fileID: 0}
  m_PrefabAsset: {fileID: 0}
  m_GameObject: {fileID: 1978081081}
  m_Enabled: 1
  serializedVersion: 3
  m_RenderMode: 0
  m_Camera: {fileID: 0}
  m_PlaneDistance: 100
  m_PixelPerfect: 0
  m_ReceivesEvents: 1
  m_OverrideSorting: 0
  m_OverridePixelPerfect: 0
  m_SortingBucketNormalizedSize: 0
  m_AdditionalShaderChannelsFlag: 0
  m_SortingLayerID: 0
  m_SortingOrder: 0
  m_TargetDisplay: 0
--- !u!224 &1978081085
RectTransform:
  m_ObjectHideFlags: 0
  m_CorrespondingSourceObject: {fileID: 0}
  m_PrefabInstance: {fileID: 0}
  m_PrefabAsset: {fileID: 0}
  m_GameObject: {fileID: 1978081081}
  m_LocalRotation: {x: 0, y: 0, z: 0, w: 1}
  m_LocalPosition: {x: 0, y: 0, z: 0}
  m_LocalScale: {x: 0, y: 0, z: 0}
  m_Children:
  - {fileID: 313722218}
  - {fileID: 1832022714}
  - {fileID: 1597068487}
  - {fileID: 1483497120}
  m_Father: {fileID: 0}
  m_RootOrder: 1
  m_LocalEulerAnglesHint: {x: 0, y: 0, z: 0}
  m_AnchorMin: {x: 0, y: 0}
  m_AnchorMax: {x: 0, y: 0}
  m_AnchoredPosition: {x: 0, y: 0}
  m_SizeDelta: {x: 0, y: 0}
  m_Pivot: {x: 0, y: 0}
--- !u!1001 &5638431527496111912
PrefabInstance:
  m_ObjectHideFlags: 0
  serializedVersion: 2
  m_Modification:
    m_TransformParent: {fileID: 1978081085}
    m_Modifications:
    - target: {fileID: 5638431528086504416, guid: 845c78f7ae9170045a078c680559c3bd,
        type: 3}
      propertyPath: m_OnClick.m_PersistentCalls.m_Calls.Array.data[0].m_Target
      value: 
      objectReference: {fileID: 963194229}
    - target: {fileID: 5638431528086504416, guid: 845c78f7ae9170045a078c680559c3bd,
        type: 3}
      propertyPath: m_OnClick.m_PersistentCalls.m_Calls.Array.data[0].m_MethodName
      value: OpenNextScene
      objectReference: {fileID: 0}
    - target: {fileID: 5638431528086504430, guid: 845c78f7ae9170045a078c680559c3bd,
        type: 3}
      propertyPath: m_Name
      value: NextButton
      objectReference: {fileID: 0}
    - target: {fileID: 5638431528086504431, guid: 845c78f7ae9170045a078c680559c3bd,
        type: 3}
      propertyPath: m_LocalPosition.x
      value: 0
      objectReference: {fileID: 0}
    - target: {fileID: 5638431528086504431, guid: 845c78f7ae9170045a078c680559c3bd,
        type: 3}
      propertyPath: m_LocalPosition.y
      value: 0
      objectReference: {fileID: 0}
    - target: {fileID: 5638431528086504431, guid: 845c78f7ae9170045a078c680559c3bd,
        type: 3}
      propertyPath: m_LocalPosition.z
      value: 0
      objectReference: {fileID: 0}
    - target: {fileID: 5638431528086504431, guid: 845c78f7ae9170045a078c680559c3bd,
        type: 3}
      propertyPath: m_LocalRotation.x
      value: 0
      objectReference: {fileID: 0}
    - target: {fileID: 5638431528086504431, guid: 845c78f7ae9170045a078c680559c3bd,
        type: 3}
      propertyPath: m_LocalRotation.y
      value: 0
      objectReference: {fileID: 0}
    - target: {fileID: 5638431528086504431, guid: 845c78f7ae9170045a078c680559c3bd,
        type: 3}
      propertyPath: m_LocalRotation.z
      value: 0
      objectReference: {fileID: 0}
    - target: {fileID: 5638431528086504431, guid: 845c78f7ae9170045a078c680559c3bd,
        type: 3}
      propertyPath: m_LocalRotation.w
      value: 1
      objectReference: {fileID: 0}
    - target: {fileID: 5638431528086504431, guid: 845c78f7ae9170045a078c680559c3bd,
        type: 3}
      propertyPath: m_RootOrder
      value: 2
      objectReference: {fileID: 0}
    - target: {fileID: 5638431528086504431, guid: 845c78f7ae9170045a078c680559c3bd,
        type: 3}
      propertyPath: m_LocalEulerAnglesHint.x
      value: 0
      objectReference: {fileID: 0}
    - target: {fileID: 5638431528086504431, guid: 845c78f7ae9170045a078c680559c3bd,
        type: 3}
      propertyPath: m_LocalEulerAnglesHint.y
      value: 0
      objectReference: {fileID: 0}
    - target: {fileID: 5638431528086504431, guid: 845c78f7ae9170045a078c680559c3bd,
        type: 3}
      propertyPath: m_LocalEulerAnglesHint.z
      value: 0
      objectReference: {fileID: 0}
    - target: {fileID: 5638431528086504431, guid: 845c78f7ae9170045a078c680559c3bd,
        type: 3}
      propertyPath: m_AnchoredPosition.x
      value: 291.3
      objectReference: {fileID: 0}
    - target: {fileID: 5638431528086504431, guid: 845c78f7ae9170045a078c680559c3bd,
        type: 3}
      propertyPath: m_AnchoredPosition.y
      value: 108.1
      objectReference: {fileID: 0}
    - target: {fileID: 5638431528086504431, guid: 845c78f7ae9170045a078c680559c3bd,
        type: 3}
      propertyPath: m_SizeDelta.x
      value: -710.2
      objectReference: {fileID: 0}
    - target: {fileID: 5638431528086504431, guid: 845c78f7ae9170045a078c680559c3bd,
        type: 3}
      propertyPath: m_SizeDelta.y
      value: 93
      objectReference: {fileID: 0}
    - target: {fileID: 5638431528086504431, guid: 845c78f7ae9170045a078c680559c3bd,
        type: 3}
      propertyPath: m_AnchorMin.x
      value: 0
      objectReference: {fileID: 0}
    - target: {fileID: 5638431528086504431, guid: 845c78f7ae9170045a078c680559c3bd,
        type: 3}
      propertyPath: m_AnchorMin.y
      value: 0
      objectReference: {fileID: 0}
    - target: {fileID: 5638431528086504431, guid: 845c78f7ae9170045a078c680559c3bd,
        type: 3}
      propertyPath: m_AnchorMax.x
      value: 1
      objectReference: {fileID: 0}
    - target: {fileID: 5638431528086504431, guid: 845c78f7ae9170045a078c680559c3bd,
        type: 3}
      propertyPath: m_AnchorMax.y
      value: 0
      objectReference: {fileID: 0}
    - target: {fileID: 5638431528086504431, guid: 845c78f7ae9170045a078c680559c3bd,
        type: 3}
      propertyPath: m_Pivot.x
      value: 0.5
      objectReference: {fileID: 0}
    - target: {fileID: 5638431528086504431, guid: 845c78f7ae9170045a078c680559c3bd,
        type: 3}
      propertyPath: m_Pivot.y
      value: 0.5
      objectReference: {fileID: 0}
    m_RemovedComponents: []
  m_SourcePrefab: {fileID: 100100000, guid: 845c78f7ae9170045a078c680559c3bd, type: 3}
--- !u!1001 &6871664985325367567
PrefabInstance:
  m_ObjectHideFlags: 0
  serializedVersion: 2
  m_Modification:
    m_TransformParent: {fileID: 1978081085}
    m_Modifications:
    - target: {fileID: 6871664986103903244, guid: a6e6d794abbef474a86aed41a0c73fe4,
        type: 3}
      propertyPath: m_AnchoredPosition.x
      value: 0
      objectReference: {fileID: 0}
    - target: {fileID: 6871664986798862224, guid: a6e6d794abbef474a86aed41a0c73fe4,
        type: 3}
      propertyPath: m_Name
      value: Horse and Lines
      objectReference: {fileID: 0}
    - target: {fileID: 6871664986798862255, guid: a6e6d794abbef474a86aed41a0c73fe4,
        type: 3}
      propertyPath: m_LocalPosition.x
      value: 0
      objectReference: {fileID: 0}
    - target: {fileID: 6871664986798862255, guid: a6e6d794abbef474a86aed41a0c73fe4,
        type: 3}
      propertyPath: m_LocalPosition.y
      value: 0
      objectReference: {fileID: 0}
    - target: {fileID: 6871664986798862255, guid: a6e6d794abbef474a86aed41a0c73fe4,
        type: 3}
      propertyPath: m_LocalPosition.z
      value: 0
      objectReference: {fileID: 0}
    - target: {fileID: 6871664986798862255, guid: a6e6d794abbef474a86aed41a0c73fe4,
        type: 3}
      propertyPath: m_LocalRotation.x
      value: 0
      objectReference: {fileID: 0}
    - target: {fileID: 6871664986798862255, guid: a6e6d794abbef474a86aed41a0c73fe4,
        type: 3}
      propertyPath: m_LocalRotation.y
      value: 0
      objectReference: {fileID: 0}
    - target: {fileID: 6871664986798862255, guid: a6e6d794abbef474a86aed41a0c73fe4,
        type: 3}
      propertyPath: m_LocalRotation.z
      value: 0
      objectReference: {fileID: 0}
    - target: {fileID: 6871664986798862255, guid: a6e6d794abbef474a86aed41a0c73fe4,
        type: 3}
      propertyPath: m_LocalRotation.w
      value: 1
      objectReference: {fileID: 0}
    - target: {fileID: 6871664986798862255, guid: a6e6d794abbef474a86aed41a0c73fe4,
        type: 3}
      propertyPath: m_RootOrder
      value: 3
      objectReference: {fileID: 0}
    - target: {fileID: 6871664986798862255, guid: a6e6d794abbef474a86aed41a0c73fe4,
        type: 3}
      propertyPath: m_LocalEulerAnglesHint.x
      value: 0
      objectReference: {fileID: 0}
    - target: {fileID: 6871664986798862255, guid: a6e6d794abbef474a86aed41a0c73fe4,
        type: 3}
      propertyPath: m_LocalEulerAnglesHint.y
      value: 0
      objectReference: {fileID: 0}
    - target: {fileID: 6871664986798862255, guid: a6e6d794abbef474a86aed41a0c73fe4,
        type: 3}
      propertyPath: m_LocalEulerAnglesHint.z
      value: 0
      objectReference: {fileID: 0}
    - target: {fileID: 6871664986798862255, guid: a6e6d794abbef474a86aed41a0c73fe4,
        type: 3}
      propertyPath: m_AnchoredPosition.x
      value: 0
      objectReference: {fileID: 0}
    - target: {fileID: 6871664986798862255, guid: a6e6d794abbef474a86aed41a0c73fe4,
        type: 3}
      propertyPath: m_AnchoredPosition.y
      value: 0
      objectReference: {fileID: 0}
    - target: {fileID: 6871664986798862255, guid: a6e6d794abbef474a86aed41a0c73fe4,
        type: 3}
      propertyPath: m_SizeDelta.x
      value: 0
      objectReference: {fileID: 0}
    - target: {fileID: 6871664986798862255, guid: a6e6d794abbef474a86aed41a0c73fe4,
        type: 3}
      propertyPath: m_SizeDelta.y
      value: 0
      objectReference: {fileID: 0}
    - target: {fileID: 6871664986798862255, guid: a6e6d794abbef474a86aed41a0c73fe4,
        type: 3}
      propertyPath: m_AnchorMin.x
      value: 0
      objectReference: {fileID: 0}
    - target: {fileID: 6871664986798862255, guid: a6e6d794abbef474a86aed41a0c73fe4,
        type: 3}
      propertyPath: m_AnchorMin.y
      value: 0
      objectReference: {fileID: 0}
    - target: {fileID: 6871664986798862255, guid: a6e6d794abbef474a86aed41a0c73fe4,
        type: 3}
      propertyPath: m_AnchorMax.x
      value: 1
      objectReference: {fileID: 0}
    - target: {fileID: 6871664986798862255, guid: a6e6d794abbef474a86aed41a0c73fe4,
        type: 3}
      propertyPath: m_AnchorMax.y
      value: 1
      objectReference: {fileID: 0}
    - target: {fileID: 6871664986798862255, guid: a6e6d794abbef474a86aed41a0c73fe4,
        type: 3}
      propertyPath: m_Pivot.x
      value: 0.5
      objectReference: {fileID: 0}
    - target: {fileID: 6871664986798862255, guid: a6e6d794abbef474a86aed41a0c73fe4,
        type: 3}
      propertyPath: m_Pivot.y
      value: 0.5
      objectReference: {fileID: 0}
    m_RemovedComponents: []
  m_SourcePrefab: {fileID: 100100000, guid: a6e6d794abbef474a86aed41a0c73fe4, type: 3}
