%YAML 1.1
%TAG !u! tag:unity3d.com,2011:
--- !u!114 &11400000
MonoBehaviour:
  m_ObjectHideFlags: 0
  m_CorrespondingSourceObject: {fileID: 0}
  m_PrefabInstance: {fileID: 0}
  m_PrefabAsset: {fileID: 0}
  m_GameObject: {fileID: 0}
  m_Enabled: 1
  m_EditorHideFlags: 0
  m_Script: {fileID: 11500000, guid: 848409ee8ba454f42a5ddff137688a27, type: 3}
  m_Name: Book0
  m_EditorClassIdentifier: 
  m_GuidLow: 4616714436705410981
  m_GuidHigh: 7848074823273133195
  m_DataStore:
    m_Storage: []
  m_Images:
  - m_SerializedGuid:
      m_GuidLow: 5410669987765250687
      m_GuidHigh: 6995118408845049473
    m_SerializedTextureGuid:
      m_GuidLow: 9805691230271004959
      m_GuidHigh: 2256407715553549672
    m_Size: {x: 1, y: 1}
    m_SpecifySize: 1
    m_Name: Book (0)
    m_Texture: {fileID: 0}
  - m_SerializedGuid:
      m_GuidLow: 5380220233612947165
      m_GuidHigh: 2937386491581995165
    m_SerializedTextureGuid:
      m_GuidLow: 18065285873513449052
      m_GuidHigh: 13956501871926168760
    m_Size: {x: 1, y: 1}
    m_SpecifySize: 1
    m_Name: Book (2)
    m_Texture: {fileID: 0}
  - m_SerializedGuid:
      m_GuidLow: 5052427866751211742
      m_GuidHigh: 16265467877564910730
    m_SerializedTextureGuid:
      m_GuidLow: 4653460755704778311
      m_GuidHigh: 6049420749880571720
    m_Size: {x: 1, y: 1}
    m_SpecifySize: 1
    m_Name: Book (3)
    m_Texture: {fileID: 0}
  - m_SerializedGuid:
      m_GuidLow: 5615628732754527094
      m_GuidHigh: 10075594813240762271
    m_SerializedTextureGuid:
      m_GuidLow: 12143091869633517880
      m_GuidHigh: 2543408976932581801
    m_Size: {x: 1, y: 1}
    m_SpecifySize: 1
    m_Name: Book (4)
    m_Texture: {fileID: 0}
  - m_SerializedGuid:
      m_GuidLow: 4742957386565843352
      m_GuidHigh: 3502332194019160982
    m_SerializedTextureGuid:
      m_GuidLow: 16808801214793219563
      m_GuidHigh: 9311189624432008827
    m_Size: {x: 1, y: 1}
    m_SpecifySize: 1
    m_Name: Book (5)
    m_Texture: {fileID: 0}
  - m_SerializedGuid:
      m_GuidLow: 5428679880095273628
      m_GuidHigh: 6947496262529706141
    m_SerializedTextureGuid:
      m_GuidLow: 5139831211572893141
      m_GuidHigh: 346965564692595240
    m_Size: {x: 1, y: 1}
    m_SpecifySize: 1
    m_Name: Book (6)
    m_Texture: {fileID: 0}
  - m_SerializedGuid:
      m_GuidLow: 4696677582363853427
      m_GuidHigh: 5419884917314825112
    m_SerializedTextureGuid:
      m_GuidLow: 10837055125802605714
      m_GuidHigh: 5424587700978023608
    m_Size: {x: 1, y: 1}
    m_SpecifySize: 1
    m_Name: Book (7)
    m_Texture: {fileID: 0}
  - m_SerializedGuid:
      m_GuidLow: 5592765662792909317
      m_GuidHigh: 11828733667984678566
    m_SerializedTextureGuid:
      m_GuidLow: 7486377502961506245
      m_GuidHigh: 8008597721039463881
    m_Size: {x: 1, y: 1}
    m_SpecifySize: 1
    m_Name: Book (8)
    m_Texture: {fileID: 0}
  - m_SerializedGuid:
      m_GuidLow: 4971274008677599227
      m_GuidHigh: 18335163306807145868
    m_SerializedTextureGuid:
      m_GuidLow: 15790896461183890613
      m_GuidHigh: 11110813151391197962
    m_Size: {x: 1, y: 1}
    m_SpecifySize: 1
    m_Name: Book (9)
    m_Texture: {fileID: 0}
  - m_SerializedGuid:
      m_GuidLow: 4655041346049504802
      m_GuidHigh: 16098185402727941539
    m_SerializedTextureGuid:
      m_GuidLow: 16727538756526133651
      m_GuidHigh: 4593531629195432459
    m_Size: {x: 1, y: 1}
    m_SpecifySize: 1
    m_Name: Book (1)
    m_Texture: {fileID: 0}
  - m_SerializedGuid:
      m_GuidLow: 4856939416754121854
      m_GuidHigh: 15245286598616665264
    m_SerializedTextureGuid:
      m_GuidLow: 17029358915738339217
      m_GuidHigh: 8178848449498571193
    m_Size: {x: 1, y: 1}
    m_SpecifySize: 1
    m_Name: Gramota
    m_Texture: {fileID: 0}
  - m_SerializedGuid:
      m_GuidLow: 5357996023382590695
      m_GuidHigh: 8064450331094270107
    m_SerializedTextureGuid:
      m_GuidLow: 14412822862956732842
      m_GuidHigh: 9991648995131489433
    m_Size: {x: 1, y: 1}
    m_SpecifySize: 1
    m_Name: Sunduk
    m_Texture: {fileID: 0}
  - m_SerializedGuid:
      m_GuidLow: 5670178712712626159
      m_GuidHigh: 13139750215997978015
    m_SerializedTextureGuid:
      m_GuidLow: 7553737555607157343
      m_GuidHigh: 6190855479126258872
    m_Size: {x: 3, y: 2}
    m_SpecifySize: 1
    m_Name: Map
    m_Texture: {fileID: 0}
  - m_SerializedGuid:
      m_GuidLow: 5417406930241777316
      m_GuidHigh: 10134784843884413862
    m_SerializedTextureGuid:
      m_GuidLow: 3284254263307040790
      m_GuidHigh: 14560642755622998539
    m_Size: {x: 1, y: 1}
    m_SpecifySize: 1
    m_Name: Mail
    m_Texture: {fileID: 0}
